scratch/pwm_vdmos_demo/trace.vcd
$date Wed May 20 02:21:19 2026
$end
$version VioAVR 1.0 $end
$timescale 1ns $end
$scope module top $end
$var wire 1 p0 pin_0 $end
$var wire 1 p1 pin_1 $end
$var wire 1 p10 pin_10 $end
$var wire 1 p11 pin_11 $end
$var wire 1 p12 pin_12 $end
$var wire 1 p13 pin_13 $end
$var wire 1 p14 pin_14 $end
$var wire 1 p15 pin_15 $end
$var wire 1 p16 pin_16 $end
$var wire 1 p17 pin_17 $end
$var wire 1 p18 pin_18 $end
$var wire 1 p19 pin_19 $end
$var wire 1 p2 pin_2 $end
$var wire 1 p20 pin_20 $end
$var wire 1 p21 pin_21 $end
$var wire 1 p22 pin_22 $end
$var wire 1 p23 pin_23 $end
$var wire 1 p24 pin_24 $end
$var wire 1 p25 pin_25 $end
$var wire 1 p26 pin_26 $end
$var wire 1 p27 pin_27 $end
$var wire 1 p28 pin_28 $end
$var wire 1 p29 pin_29 $end
$var wire 1 p3 pin_3 $end
$var wire 1 p30 pin_30 $end
$var wire 1 p31 pin_31 $end
$var wire 1 p4 pin_4 $end
$var wire 1 p5 pin_5 $end
$var wire 1 p6 pin_6 $end
$var wire 1 p7 pin_7 $end
$var wire 1 p8 pin_8 $end
$var wire 1 p9 pin_9 $end
$var wire 16 pc pc $end
$upscope $end
$enddefinitions $end
$dumpvars
$end
#187
0p0
0p1
0p2
0p3
0p4
0p5
0p6
0p7
0p8
0p9
0p10
0p11
0p12
0p13
0p14
0p15
0p16
0p17
0p18
0p19
0p20
0p21
0p22
0p23
0p24
0p25
0p26
0p27
0p28
0p29
0p30
0p31
b0000000000110100 pc
#250
b0000000000110101 pc
#437
b0000000000111000 pc
#812
b0000000001000000 pc
#1187
b0000000001000101 pc
#1312
b0000000001000111 pc
#1375
b0000000001001000 pc
#1562
b0000000001001011 pc
#1687
b0000000001001101 pc
#2062
b0000000001010011 pc
#2437
b0000000001011001 pc
#2500
b0000000001011010 pc
#2562
b0000000001011011 pc
#2687
b0000000001011101 pc
#2812
b0000000001011111 pc
#3125
b0000000001100100 pc
#3500
b0000000001100101 pc
#3625
b0000000001100010 pc
#3750
b0000000001100100 pc
#3937
b0000000001100010 pc
#4062
b0000000001100100 pc
#4437
b0000000001101010 pc
#4812
b0000000110011101 pc
#4875
b0000000110011110 pc
#5000
b0000000110101000 pc
#5187
b0000000110111111 pc
#5250
b0000000111000000 pc
#5562
b0000000111001001 pc
#5937
b0000000111001111 pc
#6000
b0000000111010000 pc
#6062
b0000000111010001 pc
#6187
b0000000111010011 pc
#6250
b0000000111010100 pc
#6562
b0000000111010011 pc
#6875
b0000000111010010 pc
#6937
b0000000111010011 pc
#7000
b0000000111010100 pc
#7125
b0000000111010000 pc
#7250
b0000000111010010 pc
#7312
b0000000111010011 pc
#7625
b0000000111010010 pc
#7937
b0000000111010111 pc
#8000
b0000000111011000 pc
#8062
b0000000111011001 pc
#8312
b0000000001101110 pc
#8437
b0000000001110000 pc
#8500
b0000000001110001 pc
#8812
b0000000011111100 pc
#9250
b0000000100010100 pc
#9312
b0000000100010101 pc
#9562
b0000001000100110 pc
#9687
b0000001000101000 pc
#9750
b0000001000101001 pc
#10062
b0000001000101110 pc
#10437
b0000001000110100 pc
#10500
b0000001000110101 pc
#10750
b0000000100010111 pc
#10875
b0000000100011001 pc
#10937
b0000000100011010 pc
#11250
b0000000100100010 pc
#11625
b0000000100101000 pc
#11687
b0000000100101001 pc
#11750
b0000000100101010 pc
#11875
b0000000100101100 pc
#11937
b0000000100101101 pc
#12250
b0000000100110010 pc
#12625
b0000000101000001 pc
#12687
b0000000101000010 pc
#12750
b0000000101000011 pc
#12875
b0000000100111101 pc
#12937
b0000000100111110 pc
#13250
b0000000101000011 pc
#13625
b0000000101000001 pc
#13687
b0000000101000010 pc
#13750
b0000000101000011 pc
#13875
b0000000100111101 pc
#13937
b0000000100111110 pc
#14250
1p1
b0000000101000011 pc
#14375
b0000000100111101 pc
#14437
b0000000100111110 pc
#14500
b0000000100111111 pc
#14562
b0000000101000000 pc
#14625
b0000000101000001 pc
#14687
b0000000101000010 pc
#14750
b0000000101000011 pc
#14875
b0000000100111101 pc
#15000
b0000000100111111 pc
#15062
b0000000101000000 pc
#15375
b0000000101000101 pc
#15437
b0000000101000110 pc
#15500
b0000000101000111 pc
#15562
b0000000101001000 pc
#15625
b0000000101001001 pc
#15687
b0000000101001010 pc
#15812
b0000000101100010 pc
#15875
b0000000101100011 pc
#16000
b0000000101100101 pc
#16125
b0000000101100111 pc
#16187
b0000000101101000 pc
#16625
b0000001000010101 pc
#16687
b0000001000010110 pc
#16750
b0000001000010111 pc
#16812
b0000001000011000 pc
#16937
b0000001000011011 pc
#17000
b0000001000011100 pc
#17125
b0000001000100101 pc
#17375
b0000000001110100 pc
#17437
b0000000001110101 pc
#17562
b0000000001110111 pc
#17625
b0000000001111000 pc
#17937
b0000000001111101 pc
#18187
b0000000011111101 pc
#18250
b0000000011111110 pc
#18312
b0000000011111111 pc
#18562
b0000000100010100 pc
#18625
b0000000100010101 pc
#18875
b0000001000100110 pc
#18937
b0000001000100111 pc
#19000
b0000001000101000 pc
#19125
b0000001000101010 pc
#19187
b0000001000101011 pc
#19500
b0000001000110000 pc
#19562
b0000001000110001 pc
#19687
b0000001000111110 pc
#19750
b0000001000111111 pc
#19812
b0000001001000000 pc
#19875
b0000001001000001 pc
#19937
b0000001001000010 pc
#20062
b0000001000110100 pc
#20125
b0000001000110101 pc
#20375
0p1
b0000000100010111 pc
#20437
b0000000100011000 pc
#20500
b0000000100011001 pc
#20625
b0000000100011011 pc
#20750
b0000000100011101 pc
#20875
b0000000100100010 pc
#20937
b0000000100100011 pc
#21000
b0000000100100100 pc
#21062
b0000000100100101 pc
#21125
b0000000100100110 pc
#21187
b0000000100100111 pc
#21250
b0000000100101000 pc
#21312
b0000000100101001 pc
#21375
b0000000100101010 pc
#21437
b0000000100101011 pc
#21500
b0000000100101100 pc
#21562
b0000000100101101 pc
#21625
b0000000100101110 pc
#21687
b0000000100101111 pc
#21750
b0000000100110000 pc
#21812
b0000000100110001 pc
#21875
b0000000100110010 pc
#21937
b0000000100110011 pc
#22000
b0000000100110100 pc
#22125
b0000000101100010 pc
#22187
b0000000101100011 pc
#22312
b0000000101100101 pc
#22375
b0000000101100110 pc
#22437
b0000000101100111 pc
#22500
b0000000101101000 pc
#22750
b0000000100000001 pc
#22937
b0000001000010101 pc
#23000
b0000001000010110 pc
#23062
b0000001000010111 pc
#23125
b0000001000011000 pc
#23250
b0000001000011011 pc
#23312
b0000001000011100 pc
#23437
b0000001000100101 pc
#23687
b0000000001111111 pc
#23750
b0000000010000000 pc
#23812
b0000000010000001 pc
#23875
b0000000010000010 pc
#23937
b0000000010000011 pc
#24000
b0000000010000100 pc
#24062
b0000000010000101 pc
#24125
b0000000010000110 pc
#24187
b0000000010000111 pc
#24250
b0000000010001000 pc
#24500
b0000001001001111 pc
#24750
b0000000111011010 pc
#24812
b0000000111011011 pc
#24875
b0000000111011100 pc
#24937
b0000000111011101 pc
#25000
b0000000111011110 pc
#25062
b0000000111011111 pc
#25125
b0000000111100000 pc
#25187
b0000000111100001 pc
#25250
b0000000111100010 pc
#25312
b0000000111100011 pc
#25375
b0000000111100100 pc
#25437
b0000000111100101 pc
#25500
b0000000111100110 pc
#25562
b0000000111100111 pc
#25625
b0000000111101000 pc
#25687
b0000000111101001 pc
#25750
b0000000111101010 pc
#25812
b0000000111101011 pc
#25875
b0000000111101100 pc
#25937
b0000000111101101 pc
#26000
b0000000111101110 pc
#26125
b0000000111110110 pc
#26187
b0000000111110111 pc
#26312
b0000000111111001 pc
#26375
b0000000111111010 pc
#26437
b0000000111111011 pc
#26500
b0000000111111100 pc
#26562
1p1
b0000000111111101 pc
#26812
b0000001001010001 pc
#26937
b0000001001010011 pc
#27187
b0000000010001010 pc
#27250
b0000000010001011 pc
#27375
b0000000010001101 pc
#27437
b0000000010001110 pc
#27500
b0000000010001111 pc
#27562
b0000000010010000 pc
#27625
b0000000010010001 pc
#27687
b0000000010010010 pc
#27750
b0000000010010011 pc
#27812
b0000000010010100 pc
#27875
b0000000010010101 pc
#28125
b0000000101101001 pc
#28375
b0000000111011010 pc
#28437
b0000000111011011 pc
#28500
b0000000111011100 pc
#28562
b0000000111011101 pc
#28625
b0000000111011110 pc
#28687
b0000000111011111 pc
#28750
b0000000111100000 pc
#28812
b0000000111100001 pc
#28875
b0000000111100010 pc
#28937
b0000000111100011 pc
#29000
b0000000111100100 pc
#29062
b0000000111100101 pc
#29125
b0000000111100110 pc
#29187
b0000000111100111 pc
#29250
b0000000111101000 pc
#29312
b0000000111101001 pc
#29375
b0000000111101010 pc
#29437
b0000000111101011 pc
#29500
b0000000111101100 pc
#29562
b0000000111101101 pc
#29625
b0000000111101110 pc
#29750
b0000000111110110 pc
#29812
b0000000111110111 pc
#29875
b0000000111111000 pc
#29937
b0000000111111001 pc
#30000
b0000000111111010 pc
#30062
b0000000111111011 pc
#30125
b0000000111111100 pc
#30187
b0000000111111101 pc
#30437
b0000000101101011 pc
#30562
b0000000101101101 pc
#30812
b0000000010010111 pc
#30937
b0000000010011001 pc
#31000
b0000000010011010 pc
#31062
b0000000010011011 pc
#31125
b0000000010011100 pc
#31187
b0000000010011101 pc
#31250
b0000000010011110 pc
#31312
b0000000010011111 pc
#31375
b0000000010100000 pc
#31437
b0000000010100001 pc
#31500
b0000000010100010 pc
#31562
b0000000010100011 pc
#31625
b0000000010100100 pc
#31687
b0000000010100101 pc
#31937
b0000001001010100 pc
#32187
b0000001001100111 pc
#32437
b0000001000100110 pc
#32562
b0000001000101000 pc
#32625
b0000001000101001 pc
#32687
b0000001000101010 pc
#32750
b0000001000101011 pc
#32812
0p1
b0000001000101100 pc
#32875
b0000001000101101 pc
#32937
b0000001000101110 pc
#33000
b0000001000101111 pc
#33062
b0000001000110000 pc
#33125
b0000001000110001 pc
#33187
b0000001000110010 pc
#33250
b0000001000110011 pc
#33312
b0000001000110100 pc
#33375
b0000001000110101 pc
#33625
b0000001001101001 pc
#33687
b0000001001101010 pc
#33812
b0000001001101011 pc
#33875
b0000001001101100 pc
#33937
b0000001001101101 pc
#34000
b0000001001101110 pc
#34062
b0000001001101111 pc
#34187
b0000001001110000 pc
#34250
b0000001001110001 pc
#34375
b0000001001110010 pc
#34437
b0000001001110011 pc
#34500
b0000001001110100 pc
#34562
b0000001001110101 pc
#34687
b0000001001110110 pc
#34750
b0000001001110111 pc
#34812
b0000001001111000 pc
#34875
b0000001001111001 pc
#34937
b0000001001111010 pc
#35062
b0000001001111011 pc
#35125
b0000001001111100 pc
#35187
b0000001001111101 pc
#35250
b0000001001111110 pc
#35312
b0000001001111111 pc
#35437
b0000001010000000 pc
#35500
b0000001010000001 pc
#35562
b0000001010000010 pc
#35625
b0000001010000011 pc
#35687
b0000001010000100 pc
#35812
b0000001010000101 pc
#35875
b0000001010000110 pc
#35937
b0000001010000111 pc
#36000
b0000001010001000 pc
#36125
b0000001010001001 pc
#36187
b0000001010001010 pc
#36250
b0000001010001011 pc
#36312
b0000001010001100 pc
#36437
b0000001010001101 pc
#36500
b0000001010001110 pc
#36562
b0000001010001111 pc
#36625
b0000001010010000 pc
#36687
b0000001010010001 pc
#36812
b0000001010010010 pc
#36875
b0000001010010011 pc
#36937
b0000001010010100 pc
#37000
b0000001010010101 pc
#37062
b0000001010010110 pc
#37125
b0000001010010111 pc
#37187
b0000001010011000 pc
#37250
b0000001010011001 pc
#37312
b0000001010011010 pc
#37375
b0000001010011011 pc
#37437
b0000001010011100 pc
#37500
b0000001010011101 pc
#37562
b0000001010011110 pc
#37625
b0000001010011111 pc
#37687
b0000001010100000 pc
#37750
b0000001010100001 pc
#37812
b0000001010100010 pc
#37875
b0000001010100011 pc
#37937
b0000001010100100 pc
#38000
b0000001010100101 pc
#38062
b0000001010100110 pc
#38187
b0000001010011100 pc
#38250
b0000001010011101 pc
#38375
b0000001010100111 pc
#38437
b0000001010101000 pc
#38500
b0000001010101001 pc
#38625
b0000001010111010 pc
#38687
b0000001010111011 pc
#38750
b0000001010111100 pc
#38812
b0000001010111101 pc
#38875
b0000001010111110 pc
#38937
b0000001010111111 pc
#39000
b0000001011000000 pc
#39250
1p1
b0000001001010110 pc
#39437
b0000001000010101 pc
#39500
b0000001000010110 pc
#39562
b0000001000010111 pc
#39625
b0000001000011000 pc
#39750
b0000001000011011 pc
#39812
b0000001000011100 pc
#39875
b0000001000011101 pc
#39937
b0000001000011110 pc
#40062
b0000001000100001 pc
#40125
b0000001000100010 pc
#40187
b0000001000100011 pc
#40250
b0000001000100100 pc
#40312
b0000001000100101 pc
#40562
b0000000010100111 pc
#40625
b0000000010101000 pc
#40687
b0000000010101001 pc
#40750
b0000000010101010 pc
#40812
b0000000010101011 pc
#40875
b0000000010101100 pc
#40937
b0000000010101101 pc
#41000
b0000000010101110 pc
#41062
b0000000010101111 pc
#41125
b0000000010110000 pc
#41187
b0000000010110001 pc
#41250
b0000000010110010 pc
#41500
b0000001001010100 pc
#41750
b0000001001100111 pc
#42000
b0000001000100110 pc
#42125
b0000001000101000 pc
#42187
b0000001000101001 pc
#42250
b0000001000101010 pc
#42312
b0000001000101011 pc
#42375
b0000001000101100 pc
#42437
b0000001000101101 pc
#42500
b0000001000101110 pc
#42562
b0000001000101111 pc
#42625
b0000001000110000 pc
#42687
b0000001000110001 pc
#42750
b0000001000110010 pc
#42812
b0000001000110011 pc
#42875
b0000001000110100 pc
#42937
b0000001000110101 pc
#43187
b0000001001101001 pc
#43250
b0000001001101010 pc
#43375
b0000001001101011 pc
#43437
b0000001001101100 pc
#43500
b0000001001101101 pc
#43562
b0000001001101110 pc
#43625
b0000001001101111 pc
#43750
b0000001001110000 pc
#43812
b0000001001110001 pc
#43937
b0000001001110010 pc
#44000
b0000001001110011 pc
#44062
b0000001001110100 pc
#44125
b0000001001110101 pc
#44250
b0000001001110110 pc
#44312
b0000001001110111 pc
#44375
b0000001001111000 pc
#44437
b0000001001111001 pc
#44500
b0000001001111010 pc
#44625
b0000001001111011 pc
#44687
b0000001001111100 pc
#44750
b0000001001111101 pc
#44812
b0000001001111110 pc
#44875
b0000001001111111 pc
#45000
b0000001010000000 pc
#45062
b0000001010000001 pc
#45125
b0000001010000010 pc
#45187
b0000001010000011 pc
#45250
b0000001010000100 pc
#45375
0p1
b0000001010000101 pc
#45437
b0000001010000110 pc
#45500
b0000001010000111 pc
#45562
b0000001010001000 pc
#45687
b0000001010001001 pc
#45750
b0000001010001010 pc
#45812
b0000001010001011 pc
#45875
b0000001010001100 pc
#46000
b0000001010001101 pc
#46062
b0000001010001110 pc
#46125
b0000001010001111 pc
#46187
b0000001010010000 pc
#46250
b0000001010010001 pc
#46375
b0000001010010010 pc
#46437
b0000001010010011 pc
#46500
b0000001010010100 pc
#46562
b0000001010010101 pc
#46625
b0000001010010110 pc
#46687
b0000001010010111 pc
#46750
b0000001010011000 pc
#46812
b0000001010011001 pc
#46875
b0000001010011010 pc
#46937
b0000001010011011 pc
#47000
b0000001010011100 pc
#47062
b0000001010011101 pc
#47125
b0000001010011110 pc
#47187
b0000001010011111 pc
#47250
b0000001010100000 pc
#47312
b0000001010100001 pc
#47375
b0000001010100010 pc
#47437
b0000001010100011 pc
#47500
b0000001010100100 pc
#47562
b0000001010100101 pc
#47625
b0000001010100110 pc
#47750
b0000001010011100 pc
#47812
b0000001010011101 pc
#47937
b0000001010100111 pc
#48000
b0000001010101000 pc
#48062
b0000001010101001 pc
#48187
b0000001010111010 pc
#48250
b0000001010111011 pc
#48312
b0000001010111100 pc
#48375
b0000001010111101 pc
#48437
b0000001010111110 pc
#48500
b0000001010111111 pc
#48562
b0000001011000000 pc
#48812
b0000001001010110 pc
#49000
b0000001000010101 pc
#49062
b0000001000010110 pc
#49125
b0000001000010111 pc
#49187
b0000001000011000 pc
#49312
b0000001000011011 pc
#49375
b0000001000011100 pc
#49500
b0000001000100101 pc
#49750
b0000000010110100 pc
#49812
b0000000010110101 pc
#49875
b0000000010110110 pc
#49937
b0000000010110111 pc
#50000
b0000000010111000 pc
#50250
b0000000011111101 pc
#50312
b0000000011111110 pc
#50375
b0000000011111111 pc
#50625
b0000000100010100 pc
#50687
b0000000100010101 pc
#50937
b0000001000100110 pc
#51000
b0000001000100111 pc
#51062
b0000001000101000 pc
#51125
b0000001000101001 pc
#51187
b0000001000101010 pc
#51250
b0000001000101011 pc
#51312
b0000001000101100 pc
#51375
b0000001000101101 pc
#51437
b0000001000101110 pc
#51500
b0000001000101111 pc
#51562
1p1
b0000001000110000 pc
#51625
b0000001000110001 pc
#51687
b0000001000110010 pc
#51750
b0000001000110011 pc
#51812
b0000001000110100 pc
#51875
b0000001000110101 pc
#52125
b0000000100010111 pc
#52187
b0000000100011000 pc
#52250
b0000000100011001 pc
#52312
b0000000100011010 pc
#52375
b0000000100011011 pc
#52437
b0000000100011100 pc
#52500
b0000000100011101 pc
#52562
b0000000100011110 pc
#52687
b0000000100101110 pc
#52750
b0000000100101111 pc
#52812
b0000000100110000 pc
#52875
b0000000100110001 pc
#52937
b0000000100110010 pc
#53062
b0000000100111101 pc
#53125
b0000000100111110 pc
#53187
b0000000100111111 pc
#53250
b0000000101000000 pc
#53312
b0000000101000001 pc
#53375
b0000000101000010 pc
#53437
b0000000101000011 pc
#53562
b0000000100111101 pc
#53625
b0000000100111110 pc
#53687
b0000000100111111 pc
#53750
b0000000101000000 pc
#53812
b0000000101000001 pc
#53875
b0000000101000010 pc
#53937
b0000000101000011 pc
#54000
b0000000101000100 pc
#54125
b0000000101010100 pc
#54187
b0000000101010101 pc
#54250
b0000000101010110 pc
#54312
b0000000101010111 pc
#54375
b0000000101011000 pc
#54437
b0000000101011001 pc
#54500
b0000000101011010 pc
#54562
b0000000101011011 pc
#54625
b0000000101011100 pc
#54687
b0000000101011101 pc
#54750
b0000000101011110 pc
#54812
b0000000101011111 pc
#54937
b0000000101100001 pc
#55000
b0000000101100010 pc
#55062
b0000000101100011 pc
#55187
b0000000101100101 pc
#55250
b0000000101100110 pc
#55312
b0000000101100111 pc
#55375
b0000000101101000 pc
#55625
b0000000100000001 pc
#55812
b0000001000010101 pc
#55875
b0000001000010110 pc
#55937
b0000001000010111 pc
#56000
b0000001000011000 pc
#56125
b0000001000011011 pc
#56187
b0000001000011100 pc
#56250
b0000001000011101 pc
#56312
b0000001000011110 pc
#56375
b0000001000011111 pc
#56437
b0000001000100000 pc
#56562
b0000001000100101 pc
#56812
b0000000010111010 pc
#56875
b0000000010111011 pc
#56937
b0000000010111100 pc
#57000
b0000000010111101 pc
#57062
b0000000010111110 pc
#57125
b0000000010111111 pc
#57187
b0000000011000000 pc
#57437
b0000000011111100 pc
#57500
b0000000011111101 pc
#57562
b0000000011111110 pc
#57625
b0000000011111111 pc
#57875
0p1
b0000000100010100 pc
#57937
b0000000100010101 pc
#58187
b0000001000100110 pc
#58312
b0000001000101000 pc
#58375
b0000001000101001 pc
#58437
b0000001000101010 pc
#58500
b0000001000101011 pc
#58562
b0000001000101100 pc
#58625
b0000001000101101 pc
#58687
b0000001000101110 pc
#58750
b0000001000101111 pc
#58812
b0000001000110000 pc
#58875
b0000001000110001 pc
#58937
b0000001000110010 pc
#59000
b0000001000110011 pc
#59062
b0000001000110100 pc
#59125
b0000001000110101 pc
#59375
b0000000100010111 pc
#59437
b0000000100011000 pc
#59500
b0000000100011001 pc
#59562
b0000000100011010 pc
#59625
b0000000100011011 pc
#59687
b0000000100011100 pc
#59750
b0000000100011101 pc
#59875
b0000000100100010 pc
#60000
b0000000100100100 pc
#60062
b0000000100100101 pc
#60125
b0000000100100110 pc
#60187
b0000000100100111 pc
#60250
b0000000100101000 pc
#60312
b0000000100101001 pc
#60375
b0000000100101010 pc
#60437
b0000000100101011 pc
#60500
b0000000100101100 pc
#60562
b0000000100101101 pc
#60625
b0000000100101110 pc
#60687
b0000000100101111 pc
#60750
b0000000100110000 pc
#60812
b0000000100110001 pc
#60875
b0000000100110010 pc
#61000
b0000000100111101 pc
#61062
b0000000100111110 pc
#61125
b0000000100111111 pc
#61187
b0000000101000000 pc
#61250
b0000000101000001 pc
#61312
b0000000101000010 pc
#61375
b0000000101000011 pc
#61500
b0000000100111101 pc
#61562
b0000000100111110 pc
#61625
b0000000100111111 pc
#61687
b0000000101000000 pc
#61750
b0000000101000001 pc
#61812
b0000000101000010 pc
#61875
b0000000101000011 pc
#61937
b0000000101000100 pc
#62062
b0000000101010100 pc
#62125
b0000000101010101 pc
#62187
b0000000101010110 pc
#62250
b0000000101010111 pc
#62312
b0000000101011000 pc
#62437
b0000000101100010 pc
#62500
b0000000101100011 pc
#62625
b0000000101100101 pc
#62687
b0000000101100110 pc
#62750
b0000000101100111 pc
#62812
b0000000101101000 pc
#63062
b0000000100000001 pc
#63250
b0000001000010101 pc
#63312
b0000001000010110 pc
#63375
b0000001000010111 pc
#63437
b0000001000011000 pc
#63562
b0000001000011011 pc
#63625
b0000001000011100 pc
#63750
b0000001000100101 pc
#64000
b0000000011000010 pc
#64062
1p1
b0000000011000011 pc
#64125
b0000000011000100 pc
#64187
b0000000011000101 pc
#64250
b0000000011000110 pc
#64312
b0000000011000111 pc
#64375
b0000000011001000 pc
#64437
b0000000011001001 pc
#64500
b0000000011001010 pc
#64562
b0000000011001011 pc
#64812
b0000001001001111 pc
#65062
b0000000111011010 pc
#65125
b0000000111011011 pc
#65187
b0000000111011100 pc
#65250
b0000000111011101 pc
#65312
b0000000111011110 pc
#65375
b0000000111011111 pc
#65437
b0000000111100000 pc
#65500
b0000000111100001 pc
#65562
b0000000111100010 pc
#65625
b0000000111100011 pc
#65687
b0000000111100100 pc
#65750
b0000000111100101 pc
#65812
b0000000111100110 pc
#65875
b0000000111100111 pc
#65937
b0000000111101000 pc
#66000
b0000000111101001 pc
#66062
b0000000111101010 pc
#66125
b0000000111101011 pc
#66187
b0000000111101100 pc
#66250
b0000000111101101 pc
#66312
b0000000111101110 pc
#66437
b0000000111110110 pc
#66500
b0000000111110111 pc
#66562
b0000000111111000 pc
#66625
b0000000111111001 pc
#66687
b0000000111111010 pc
#66750
b0000000111111011 pc
#66812
b0000000111111100 pc
#66875
b0000000111111101 pc
#67125
b0000001001010001 pc
#67250
b0000001001010011 pc
#67500
b0000000011001101 pc
#67562
b0000000011001110 pc
#67687
b0000000011110111 pc
#67750
b0000000011111000 pc
#67812
b0000000011111001 pc
#67875
b0000000011111010 pc
#67937
b0000000011111011 pc
#68062
b0000000011011111 pc
#68125
b0000000011100000 pc
#68187
b0000000011100001 pc
#68250
b0000000011100010 pc
#68312
b0000000011100011 pc
#68562
b0000000101101110 pc
#68812
b0000001000101110 pc
#68875
b0000001000101111 pc
#68937
b0000001000110000 pc
#69000
b0000001000110001 pc
#69062
b0000001000110010 pc
#69125
b0000001000110011 pc
#69187
b0000001000110100 pc
#69250
b0000001000110101 pc
#69500
b0000000101110000 pc
#69562
b0000000101110001 pc
#69625
b0000000101110010 pc
#69687
b0000000101110011 pc
#69750
b0000000101110100 pc
#69812
b0000000101110101 pc
#69875
b0000000101110110 pc
#70000
b0000000110001101 pc
#70062
b0000000110001110 pc
#70187
b0000000110001000 pc
#70250
b0000000110001001 pc
#70312
0p1
b0000000110001010 pc
#70375
b0000000110001011 pc
#70437
b0000000110001100 pc
#70500
b0000000110001101 pc
#70562
b0000000110001110 pc
#70687
b0000000110001000 pc
#70750
b0000000110001001 pc
#70812
b0000000110001010 pc
#70875
b0000000110001011 pc
#70937
b0000000110001100 pc
#71062
b0000000110010100 pc
#71187
b0000000110011100 pc
#71437
b0000000011100101 pc
#71500
b0000000011100110 pc
#71562
b0000000011100111 pc
#71687
b0000000011101001 pc
#71812
b0000000011101011 pc
#71875
b0000000011101100 pc
#71937
b0000000011101101 pc
#72062
b0000000011101100 pc
#72125
b0000000011101101 pc
#72250
b0000000011101100 pc
#72312
b0000000011101101 pc
#72437
b0000000011101100 pc
#72500
b0000000011101101 pc
#72625
b0000000011101100 pc
#72687
b0000000011101101 pc
#72812
b0000000011101100 pc
#72875
b0000000011101101 pc
#73000
b0000000011101100 pc
#73062
b0000000011101101 pc
#73187
b0000000011101100 pc
#73250
b0000000011101101 pc
#73375
b0000000011101100 pc
#73437
b0000000011101101 pc
#73562
b0000000011101100 pc
#73625
b0000000011101101 pc
#73687
b0000000011101110 pc
#73812
b0000000011101111 pc
#73937
b0000000001011101 pc
#74062
b0000000001011111 pc
#74125
b0000000001100000 pc
#74250
b0000000001100010 pc
#74375
b0000000001100100 pc
#74437
b0000000001100101 pc
#74562
b0000000001100010 pc
#74687
b0000000001100100 pc
#74750
b0000000001100101 pc
#74875
b0000000001100010 pc
#75000
b0000000001100100 pc
#75062
b0000000001100101 pc
#75187
b0000000001100010 pc
#75312
b0000000001100100 pc
#75437
b0000000001100110 pc
#75562
b0000000001101000 pc
#75687
b0000000001101010 pc
#75750
b0000000001101011 pc
#75812
b0000000001101100 pc
#76062
b0000000110011101 pc
#76125
b0000000110011110 pc
#76250
b0000000110101000 pc
#76312
b0000000110101001 pc
#76437
b0000000110111111 pc
#76500
b0000000111000000 pc
#76625
1p1
b0000000111000011 pc
#76687
b0000000111000100 pc
#76750
b0000000111000101 pc
#76812
b0000000111000110 pc
#76875
b0000000111000111 pc
#76937
b0000000111001000 pc
#77062
b0000000111001110 pc
#77125
b0000000111001111 pc
#77187
b0000000111010000 pc
#77250
b0000000111010001 pc
#77312
b0000000111010010 pc
#77375
b0000000111010011 pc
#77437
b0000000111010100 pc
#77562
b0000000111010000 pc
#77625
b0000000111010001 pc
#77687
b0000000111010010 pc
#77750
b0000000111010011 pc
#77812
b0000000111010100 pc
#77937
b0000000111010000 pc
#78000
b0000000111010001 pc
#78062
b0000000111010010 pc
#78125
b0000000111010011 pc
#78187
b0000000111010100 pc
#78312
b0000000111010000 pc
#78375
b0000000111010001 pc
#78437
b0000000111010010 pc
#78500
b0000000111010011 pc
#78562
b0000000111010100 pc
#78687
b0000000111010000 pc
#78750
b0000000111010001 pc
#78812
b0000000111010010 pc
#78875
b0000000111010011 pc
#78937
b0000000111010100 pc
#79062
b0000000111010000 pc
#79125
b0000000111010001 pc
#79187
b0000000111010010 pc
#79250
b0000000111010011 pc
#79312
b0000000111010100 pc
#79437
b0000000111010000 pc
#79500
b0000000111010001 pc
#79562
b0000000111010010 pc
#79625
b0000000111010011 pc
#79687
b0000000111010100 pc
#79750
b0000000111010101 pc
#79812
b0000000111010110 pc
#79875
b0000000111010111 pc
#79937
b0000000111011000 pc
#80000
b0000000111011001 pc
#80250
b0000000001101110 pc
#80312
b0000000001101111 pc
#80375
b0000000001110000 pc
#80437
b0000000001110001 pc
#80500
b0000000001110010 pc
#80750
b0000000011111100 pc
#80812
b0000000011111101 pc
#80875
b0000000011111110 pc
#80937
b0000000011111111 pc
#81187
b0000000100010100 pc
#81250
b0000000100010101 pc
#81500
b0000001000100110 pc
#81562
b0000001000100111 pc
#81625
b0000001000101000 pc
#81687
b0000001000101001 pc
#81750
b0000001000101010 pc
#81812
b0000001000101011 pc
#81875
b0000001000101100 pc
#81937
b0000001000101101 pc
#82000
b0000001000101110 pc
#82062
b0000001000101111 pc
#82125
b0000001000110000 pc
#82187
b0000001000110001 pc
#82250
b0000001000110010 pc
#82312
b0000001000110011 pc
#82375
b0000001000110100 pc
#82437
b0000001000110101 pc
#82687
b0000000100010111 pc
#82750
b0000000100011000 pc
#82812
b0000000100011001 pc
#82875
b0000000100011010 pc
#82937
b0000000100011011 pc
#83000
b0000000100011100 pc
#83062
b0000000100011101 pc
#83187
b0000000100100010 pc
#83250
b0000000100100011 pc
#83312
b0000000100100100 pc
#83375
b0000000100100101 pc
#83437
b0000000100100110 pc
#83500
b0000000100100111 pc
#83562
b0000000100101000 pc
#83625
b0000000100101001 pc
#83687
b0000000100101010 pc
#83750
b0000000100101011 pc
#83812
b0000000100101100 pc
#83875
b0000000100101101 pc
#83937
b0000000100101110 pc
#84000
b0000000100101111 pc
#84062
b0000000100110000 pc
#84187
b0000000101000100 pc
#84250
b0000000101000101 pc
#84312
b0000000101000110 pc
#84375
b0000000101000111 pc
#84437
b0000000101001000 pc
#84500
b0000000101001001 pc
#84562
b0000000101001010 pc
#84625
b0000000101001011 pc
#84687
b0000000101001100 pc
#84750
b0000000101001101 pc
#84812
b0000000101001110 pc
#84875
b0000000101001111 pc
#84937
b0000000101010000 pc
#85000
b0000000101010001 pc
#85062
b0000000101010010 pc
#85187
b0000000101001011 pc
#85250
b0000000101001100 pc
#85312
b0000000101001101 pc
#85375
b0000000101001110 pc
#85437
b0000000101001111 pc
#85500
b0000000101010000 pc
#85562
b0000000101010001 pc
#85625
b0000000101010010 pc
#85750
b0000000101001011 pc
#85812
b0000000101001100 pc
#85875
b0000000101001101 pc
#85937
b0000000101001110 pc
#86000
b0000000101001111 pc
#86062
b0000000101010000 pc
#86125
b0000000101010001 pc
#86187
b0000000101010010 pc
#86250
b0000000101010011 pc
#86375
b0000000101100010 pc
#86437
b0000000101100011 pc
#86562
b0000000101100101 pc
#86625
b0000000101100110 pc
#86687
b0000000101100111 pc
#86750
b0000000101101000 pc
#87000
b0000000100000001 pc
#87187
b0000001000010101 pc
#87250
b0000001000010110 pc
#87312
b0000001000010111 pc
#87375
b0000001000011000 pc
#87500
b0000001000011011 pc
#87562
b0000001000011100 pc
#87687
b0000001000100101 pc
#87937
b0000000001110100 pc
#88000
b0000000001110101 pc
#88062
b0000000001110110 pc
#88125
b0000000001110111 pc
#88187
b0000000001111000 pc
#88250
b0000000001111001 pc
#88312
b0000000001111010 pc
#88375
b0000000001111011 pc
#88437
0p1
b0000000001111100 pc
