scratch/gui_server/trace.vcd
$date Wed May 20 03:07:32 2026
$end
$version VioAVR 1.0 $end
$timescale 1ns $end
$scope module top $end
$var wire 1 p0 pin_0 $end
$var wire 1 p1 pin_1 $end
$var wire 1 p10 pin_10 $end
$var wire 1 p11 pin_11 $end
$var wire 1 p12 pin_12 $end
$var wire 1 p13 pin_13 $end
$var wire 1 p14 pin_14 $end
$var wire 1 p15 pin_15 $end
$var wire 1 p16 pin_16 $end
$var wire 1 p17 pin_17 $end
$var wire 1 p18 pin_18 $end
$var wire 1 p19 pin_19 $end
$var wire 1 p2 pin_2 $end
$var wire 1 p20 pin_20 $end
$var wire 1 p21 pin_21 $end
$var wire 1 p22 pin_22 $end
$var wire 1 p23 pin_23 $end
$var wire 1 p24 pin_24 $end
$var wire 1 p25 pin_25 $end
$var wire 1 p26 pin_26 $end
$var wire 1 p27 pin_27 $end
$var wire 1 p28 pin_28 $end
$var wire 1 p29 pin_29 $end
$var wire 1 p3 pin_3 $end
$var wire 1 p30 pin_30 $end
$var wire 1 p31 pin_31 $end
$var wire 1 p4 pin_4 $end
$var wire 1 p5 pin_5 $end
$var wire 1 p6 pin_6 $end
$var wire 1 p7 pin_7 $end
$var wire 1 p8 pin_8 $end
$var wire 1 p9 pin_9 $end
$var wire 16 pc pc $end
$upscope $end
$enddefinitions $end
$dumpvars
$end
#187
0p0
0p1
0p2
0p3
0p4
0p5
0p6
0p7
0p8
0p9
0p10
0p11
0p12
0p13
0p14
0p15
0p16
0p17
0p18
0p19
0p20
0p21
0p22
0p23
0p24
0p25
0p26
0p27
0p28
0p29
0p30
0p31
b0000000000110100 pc
#250
b0000000000110101 pc
#437
b0000000000111000 pc
#812
b0000000001000000 pc
#1187
b0000000001000110 pc
#1250
b0000000001000111 pc
#1375
b0000000001001001 pc
#1500
b0000000001001011 pc
#1562
b0000000001001100 pc
#1875
b0000000001010001 pc
#2312
b0000000001001110 pc
#2437
b0000000001010000 pc
#2500
b0000000001010001 pc
#2625
b0000000001001110 pc
#2750
b0000000001010000 pc
#3000
b0000000001010100 pc
#3125
b0000000001010110 pc
#3500
#3562
b0000000001010111 pc
#3687
b0000000001010110 pc
#3875
#3937
b0000000001010111 pc
#4125
#4250
b0000000001010110 pc
#4625
#4687
b0000000001010111 pc
#4812
b0000000001010110 pc
#5000
#5062
b0000000001010111 pc
#5250
#5375
b0000000001010110 pc
#5750
#5812
b0000000001010111 pc
#5937
b0000000001010110 pc
#6125
#6187
b0000000001010111 pc
#6375
#6500
b0000000001010110 pc
#6875
#6937
b0000000001010111 pc
#7062
b0000000001010110 pc
#7125
b0000000001010111 pc
#7250
b0000000001010110 pc
#7312
b0000000001010111 pc
#7500
#7625
b0000000001010110 pc
#8000
#8062
b0000000001010111 pc
#8187
b0000000001010110 pc
#8250
b0000000001010111 pc
#8375
b0000000001010110 pc
#8437
b0000000001010111 pc
#8625
#8750
b0000000001010110 pc
#9125
#9187
b0000000001010111 pc
#9312
b0000000001010110 pc
#9500
#9562
b0000000001010111 pc
#9750
#9875
b0000000001010110 pc
#10250
#10312
b0000000001010111 pc
#10437
b0000000001010110 pc
#10625
#10687
b0000000001010111 pc
#10875
#11000
b0000000001010110 pc
#11375
#11437
b0000000001010111 pc
#11562
b0000000001010110 pc
#11750
#11812
b0000000001010111 pc
#12000
#12125
b0000000001010110 pc
#12500
#12562
b0000000001010111 pc
#12687
b0000000001010110 pc
#12875
#12937
b0000000001010111 pc
#13187
b0000000001001001 pc
#13312
b0000000001001011 pc
#13687
b0000000001010001 pc
#13812
b0000000001001110 pc
#13937
b0000000001010000 pc
#14125
b0000000001001110 pc
#14250
b0000000001010000 pc
#14437
b0000000001001110 pc
#14562
b0000000001010000 pc
#14937
1p16
1p18
b0000000001010110 pc
#15000
b0000000001010111 pc
#15125
b0000000001010110 pc
#15187
b0000000001010111 pc
#15312
b0000000001010110 pc
#15375
b0000000001010111 pc
#15562
#15687
b0000000001010110 pc
#15750
b0000000001010111 pc
#16125
#16250
b0000000001010110 pc
#16312
b0000000001010111 pc
#16437
b0000000001010110 pc
#16500
b0000000001010111 pc
#16625
b0000000001010110 pc
#16687
b0000000001010111 pc
#16812
b0000000001010110 pc
#16875
b0000000001010111 pc
#17000
b0000000001010110 pc
#17375
#17437
b0000000001010111 pc
#17562
b0000000001010110 pc
#17625
b0000000001010111 pc
#17750
b0000000001010110 pc
#17812
b0000000001010111 pc
#17937
b0000000001010110 pc
#18125
#18187
b0000000001010111 pc
#18312
b0000000001010110 pc
#18687
#18750
b0000000001010111 pc
#18875
b0000000001010110 pc
#18937
b0000000001010111 pc
#19062
b0000000001010110 pc
#19125
b0000000001010111 pc
#19250
b0000000001010110 pc
#19437
#19500
b0000000001010111 pc
#19625
b0000000001010110 pc
#20000
#20062
b0000000001010111 pc
#20187
b0000000001010110 pc
#20250
b0000000001010111 pc
#20375
b0000000001010110 pc
#20437
b0000000001010111 pc
#20562
b0000000001010110 pc
#20750
#20812
b0000000001010111 pc
#20937
b0000000001010110 pc
#21312
#21375
b0000000001010111 pc
#21500
b0000000001010110 pc
#21562
b0000000001010111 pc
#21687
b0000000001010110 pc
#21750
b0000000001010111 pc
#21875
b0000000001010110 pc
#22062
#22125
b0000000001010111 pc
#22250
b0000000001010110 pc
#22625
#22687
b0000000001010111 pc
#22812
b0000000001010110 pc
#22875
b0000000001010111 pc
#23000
b0000000001010110 pc
#23062
b0000000001010111 pc
#23187
b0000000001010110 pc
#23375
#23437
b0000000001010111 pc
#23562
b0000000001010110 pc
#23937
#24000
b0000000001010111 pc
#24125
b0000000001010110 pc
#24187
b0000000001010111 pc
#24312
b0000000001010110 pc
#24375
b0000000001010111 pc
#24500
b0000000001010110 pc
#24687
#24750
b0000000001010111 pc
#24812
b0000000001011000 pc
#25187
b0000000001001100 pc
#25312
b0000000001001110 pc
#25437
b0000000001010000 pc
#25500
b0000000001010001 pc
#25625
b0000000001001110 pc
#25750
b0000000001010000 pc
#25812
b0000000001010001 pc
#25937
b0000000001001110 pc
#26062
b0000000001010000 pc
#26125
b0000000001010001 pc
#26500
b0000000001010010 pc
#26625
b0000000001010100 pc
#26687
0p16
1p17
0p18
1p19
b0000000001010101 pc
#26750
b0000000001010110 pc
#26812
b0000000001010111 pc
#26937
b0000000001010110 pc
#27000
b0000000001010111 pc
#27125
b0000000001010110 pc
#27187
b0000000001010111 pc
#27312
b0000000001010110 pc
#27500
#27750
b0000000001010111 pc
#27875
b0000000001010110 pc
#27937
b0000000001010111 pc
#28062
b0000000001010110 pc
#28125
b0000000001010111 pc
#28250
b0000000001010110 pc
#28312
b0000000001010111 pc
#28437
b0000000001010110 pc
#28500
b0000000001010111 pc
#28625
b0000000001010110 pc
#28812
#29062
b0000000001010111 pc
#29187
b0000000001010110 pc
#29250
b0000000001010111 pc
#29375
b0000000001010110 pc
#29437
b0000000001010111 pc
#29562
b0000000001010110 pc
#29625
b0000000001010111 pc
#29750
b0000000001010110 pc
#29812
b0000000001010111 pc
#29937
b0000000001010110 pc
#30125
#30375
b0000000001010111 pc
#30500
b0000000001010110 pc
#30562
b0000000001010111 pc
#30687
b0000000001010110 pc
#30750
b0000000001010111 pc
#30875
b0000000001010110 pc
#30937
b0000000001010111 pc
#31062
b0000000001010110 pc
#31125
b0000000001010111 pc
#31250
b0000000001010110 pc
#31437
#31687
b0000000001010111 pc
#31812
b0000000001010110 pc
#31875
b0000000001010111 pc
#32000
b0000000001010110 pc
#32062
b0000000001010111 pc
#32187
b0000000001010110 pc
#32250
b0000000001010111 pc
#32375
b0000000001010110 pc
#32437
b0000000001010111 pc
#32562
b0000000001010110 pc
#32750
#33000
b0000000001010111 pc
#33125
b0000000001010110 pc
#33187
b0000000001010111 pc
#33312
b0000000001010110 pc
#33375
b0000000001010111 pc
#33500
b0000000001010110 pc
#33562
b0000000001010111 pc
#33687
b0000000001010110 pc
#33750
b0000000001010111 pc
#33875
b0000000001010110 pc
#34062
#34312
b0000000001010111 pc
#34437
b0000000001010110 pc
#34500
b0000000001010111 pc
#34625
b0000000001010110 pc
#34687
b0000000001010111 pc
#34812
b0000000001010110 pc
#34875
b0000000001010111 pc
#35000
b0000000001010110 pc
#35062
b0000000001010111 pc
#35187
b0000000001010110 pc
#35375
#35625
b0000000001010111 pc
#35750
b0000000001010110 pc
#35812
b0000000001010111 pc
#35937
b0000000001010110 pc
#36000
b0000000001010111 pc
#36125
b0000000001010110 pc
#36187
b0000000001010111 pc
#36312
b0000000001010110 pc
#36375
b0000000001010111 pc
#36500
b0000000001010110 pc
#36625
b0000000001011000 pc
#36937
b0000000001001011 pc
#37000
b0000000001001100 pc
#37125
b0000000001001110 pc
#37250
b0000000001010000 pc
#37312
b0000000001010001 pc
#37437
b0000000001001110 pc
#37562
b0000000001010000 pc
#37750
b0000000001001110 pc
#37875
b0000000001010000 pc
#37937
b0000000001010001 pc
#38062
b0000000001001110 pc
#38312
b0000000001010010 pc
#38437
b0000000001010100 pc
#38500
1p18
b0000000001010101 pc
#38562
b0000000001010110 pc
#38625
b0000000001010111 pc
#38750
b0000000001010110 pc
#38812
b0000000001010111 pc
#38937
b0000000001010110 pc
#39000
b0000000001010111 pc
#39125
b0000000001010110 pc
#39312
#39562
b0000000001010111 pc
#39687
b0000000001010110 pc
#39750
b0000000001010111 pc
#39875
b0000000001010110 pc
#39937
b0000000001010111 pc
#40062
b0000000001010110 pc
#40125
b0000000001010111 pc
#40250
b0000000001010110 pc
#40312
b0000000001010111 pc
#40437
b0000000001010110 pc
#40625
#40875
b0000000001010111 pc
#41000
b0000000001010110 pc
#41062
b0000000001010111 pc
#41187
b0000000001010110 pc
#41250
b0000000001010111 pc
#41375
b0000000001010110 pc
#41437
b0000000001010111 pc
#41562
b0000000001010110 pc
#41625
b0000000001010111 pc
#41750
b0000000001010110 pc
#41937
#42187
b0000000001010111 pc
#42312
b0000000001010110 pc
#42375
b0000000001010111 pc
#42500
b0000000001010110 pc
#42562
b0000000001010111 pc
#42687
b0000000001010110 pc
#42750
b0000000001010111 pc
#42875
b0000000001010110 pc
#42937
b0000000001010111 pc
#43062
b0000000001010110 pc
#43250
#43500
b0000000001010111 pc
#43625
b0000000001010110 pc
#43687
b0000000001010111 pc
#43812
b0000000001010110 pc
#43875
b0000000001010111 pc
#44000
b0000000001010110 pc
#44062
b0000000001010111 pc
#44187
b0000000001010110 pc
#44250
b0000000001010111 pc
#44375
b0000000001010110 pc
#44562
#44750
#44812
b0000000001010111 pc
#44937
b0000000001010110 pc
#45000
b0000000001010111 pc
#45125
b0000000001010110 pc
#45187
b0000000001010111 pc
#45312
b0000000001010110 pc
#45375
b0000000001010111 pc
#45500
b0000000001010110 pc
#45562
b0000000001010111 pc
#45687
b0000000001010110 pc
#45875
#46062
#46125
b0000000001010111 pc
#46250
b0000000001010110 pc
#46312
b0000000001010111 pc
#46437
b0000000001010110 pc
#46500
b0000000001010111 pc
#46625
b0000000001010110 pc
#46687
b0000000001010111 pc
#46812
b0000000001010110 pc
#46875
b0000000001010111 pc
#47000
b0000000001010110 pc
#47187
#47375
#47437
b0000000001010111 pc
#47562
b0000000001010110 pc
#47625
b0000000001010111 pc
#47750
b0000000001010110 pc
#47812
b0000000001010111 pc
#47937
b0000000001010110 pc
#48000
b0000000001010111 pc
#48125
b0000000001010110 pc
#48187
b0000000001010111 pc
#48312
b0000000001010110 pc
#48437
b0000000001011000 pc
#48625
b0000000001001001 pc
#48750
b0000000001001011 pc
#48812
b0000000001001100 pc
#48937
b0000000001001110 pc
#49062
b0000000001010000 pc
#49125
b0000000001010001 pc
#49250
b0000000001001110 pc
#49375
b0000000001010000 pc
#49562
b0000000001001110 pc
#49687
b0000000001010000 pc
#49750
b0000000001010001 pc
#49875
b0000000001001110 pc
#50125
b0000000001010010 pc
#50250
b0000000001010100 pc
#50312
1p16
0p18
0p19
1p20
b0000000001010101 pc
#50375
b0000000001010110 pc
#50437
b0000000001010111 pc
#50562
b0000000001010110 pc
#50625
b0000000001010111 pc
#50750
b0000000001010110 pc
#50937
#51000
b0000000001010111 pc
#51125
b0000000001010110 pc
#51312
#51500
#51562
b0000000001010111 pc
#51687
b0000000001010110 pc
#51750
b0000000001010111 pc
#51875
b0000000001010110 pc
#51937
b0000000001010111 pc
#52062
b0000000001010110 pc
#52125
b0000000001010111 pc
#52250
b0000000001010110 pc
#52312
b0000000001010111 pc
#52437
b0000000001010110 pc
#52500
b0000000001010111 pc
#52625
b0000000001010110 pc
#52812
#52875
b0000000001010111 pc
#53000
b0000000001010110 pc
#53062
b0000000001010111 pc
#53187
b0000000001010110 pc
#53250
b0000000001010111 pc
#53375
b0000000001010110 pc
#53437
b0000000001010111 pc
#53562
b0000000001010110 pc
#53625
b0000000001010111 pc
#53750
b0000000001010110 pc
#53812
b0000000001010111 pc
#53937
b0000000001010110 pc
#54125
#54187
b0000000001010111 pc
#54312
b0000000001010110 pc
#54375
b0000000001010111 pc
#54500
b0000000001010110 pc
#54562
b0000000001010111 pc
#54687
b0000000001010110 pc
#54750
b0000000001010111 pc
#54875
b0000000001010110 pc
#54937
b0000000001010111 pc
#55062
b0000000001010110 pc
#55125
b0000000001010111 pc
#55250
b0000000001010110 pc
#55437
#55500
b0000000001010111 pc
#55625
b0000000001010110 pc
#55687
b0000000001010111 pc
#55812
b0000000001010110 pc
#55875
b0000000001010111 pc
#56000
b0000000001010110 pc
#56062
b0000000001010111 pc
#56187
b0000000001010110 pc
#56250
b0000000001010111 pc
#56375
b0000000001010110 pc
#56437
b0000000001010111 pc
#56562
b0000000001010110 pc
#56750
#56812
b0000000001010111 pc
#56937
b0000000001010110 pc
#57000
b0000000001010111 pc
#57125
b0000000001010110 pc
#57187
b0000000001010111 pc
#57312
b0000000001010110 pc
#57375
b0000000001010111 pc
#57500
b0000000001010110 pc
#57562
b0000000001010111 pc
#57687
b0000000001010110 pc
#57750
b0000000001010111 pc
#57875
b0000000001010110 pc
#58062
#58125
b0000000001010111 pc
#58250
b0000000001010110 pc
#58312
b0000000001010111 pc
#58437
b0000000001010110 pc
#58500
b0000000001010111 pc
#58625
b0000000001010110 pc
#58687
b0000000001010111 pc
#58812
b0000000001010110 pc
#58875
b0000000001010111 pc
#59000
b0000000001010110 pc
#59062
b0000000001010111 pc
#59187
b0000000001010110 pc
#59375
#59437
b0000000001010111 pc
#59562
b0000000001010110 pc
#59625
b0000000001010111 pc
#59750
b0000000001010110 pc
#59812
b0000000001010111 pc
#59937
b0000000001010110 pc
#60000
b0000000001010111 pc
#60125
b0000000001010110 pc
#60187
b0000000001010111 pc
#60250
b0000000001011000 pc
#60312
b0000000001011001 pc
#60437
b0000000001001001 pc
#60625
b0000000001001100 pc
#60750
b0000000001001110 pc
#60875
b0000000001010000 pc
#60937
b0000000001010001 pc
#61062
b0000000001001110 pc
#61187
b0000000001010000 pc
#61250
b0000000001010001 pc
#61375
b0000000001001110 pc
#61500
b0000000001010000 pc
#61562
b0000000001010001 pc
#61687
b0000000001001110 pc
#61812
b0000000001010000 pc
#61937
b0000000001010010 pc
#62125
0p16
0p17
1p19
b0000000001010101 pc
#62187
b0000000001010110 pc
#62250
b0000000001010111 pc
#62375
b0000000001010110 pc
#62437
b0000000001010111 pc
#62562
b0000000001010110 pc
#62625
b0000000001010111 pc
#62750
b0000000001010110 pc
#62812
b0000000001010111 pc
#62937
b0000000001010110 pc
#63000
b0000000001010111 pc
#63125
b0000000001010110 pc
#63312
#63500
#63562
b0000000001010111 pc
#63687
b0000000001010110 pc
#63750
b0000000001010111 pc
#63875
b0000000001010110 pc
#63937
b0000000001010111 pc
#64062
b0000000001010110 pc
#64125
b0000000001010111 pc
#64250
b0000000001010110 pc
#64312
b0000000001010111 pc
#64437
b0000000001010110 pc
#64500
b0000000001010111 pc
#64625
b0000000001010110 pc
#64812
#64875
b0000000001010111 pc
#65000
b0000000001010110 pc
#65062
b0000000001010111 pc
#65187
b0000000001010110 pc
#65250
b0000000001010111 pc
#65375
b0000000001010110 pc
#65437
b0000000001010111 pc
#65562
b0000000001010110 pc
#65625
b0000000001010111 pc
#65750
b0000000001010110 pc
#65812
b0000000001010111 pc
#65937
b0000000001010110 pc
#66125
#66187
b0000000001010111 pc
#66312
b0000000001010110 pc
#66375
b0000000001010111 pc
#66500
b0000000001010110 pc
#66562
b0000000001010111 pc
#66687
b0000000001010110 pc
#66750
b0000000001010111 pc
#66875
b0000000001010110 pc
#66937
b0000000001010111 pc
#67062
b0000000001010110 pc
#67125
b0000000001010111 pc
#67250
b0000000001010110 pc
#67437
#67500
b0000000001010111 pc
#67625
b0000000001010110 pc
#67687
b0000000001010111 pc
#67812
b0000000001010110 pc
#67875
b0000000001010111 pc
#68000
b0000000001010110 pc
#68062
b0000000001010111 pc
#68187
b0000000001010110 pc
#68250
b0000000001010111 pc
#68375
b0000000001010110 pc
#68437
b0000000001010111 pc
#68562
b0000000001010110 pc
#68750
#68812
b0000000001010111 pc
#68937
b0000000001010110 pc
#69000
b0000000001010111 pc
#69125
b0000000001010110 pc
#69187
b0000000001010111 pc
#69312
b0000000001010110 pc
#69375
b0000000001010111 pc
#69500
b0000000001010110 pc
#69562
b0000000001010111 pc
#69687
b0000000001010110 pc
#69750
b0000000001010111 pc
#69875
b0000000001010110 pc
#70062
#70125
b0000000001010111 pc
#70250
b0000000001010110 pc
#70312
b0000000001010111 pc
#70437
b0000000001010110 pc
#70500
b0000000001010111 pc
#70625
b0000000001010110 pc
#70687
b0000000001010111 pc
#70812
b0000000001010110 pc
#70875
b0000000001010111 pc
#71000
b0000000001010110 pc
#71062
b0000000001010111 pc
#71187
b0000000001010110 pc
#71375
#71437
b0000000001010111 pc
#71562
b0000000001010110 pc
#71625
b0000000001010111 pc
#71750
b0000000001010110 pc
#71812
b0000000001010111 pc
#71937
b0000000001010110 pc
#72000
b0000000001010111 pc
#72062
b0000000001011000 pc
#72125
b0000000001011001 pc
#72250
b0000000001001001 pc
#72375
b0000000001001011 pc
#72562
b0000000001001110 pc
#72750
b0000000001010001 pc
#72875
b0000000001001110 pc
#73000
b0000000001010000 pc
#73062
b0000000001010001 pc
#73187
b0000000001001110 pc
#73312
b0000000001010000 pc
#73375
b0000000001010001 pc
#73500
b0000000001001110 pc
#73625
b0000000001010000 pc
#73750
b0000000001010010 pc
#73875
b0000000001010100 pc
#73937
1p18
b0000000001010101 pc
#74062
b0000000001010111 pc
#74187
b0000000001010110 pc
#74375
#74437
b0000000001010111 pc
#74562
b0000000001010110 pc
#74625
b0000000001010111 pc
#74750
b0000000001010110 pc
#74812
b0000000001010111 pc
#74937
b0000000001010110 pc
#75000
b0000000001010111 pc
#75125
b0000000001010110 pc
#75187
b0000000001010111 pc
#75312
b0000000001010110 pc
#75375
b0000000001010111 pc
#75500
b0000000001010110 pc
#75562
b0000000001010111 pc
#75687
b0000000001010110 pc
#75750
b0000000001010111 pc
#75875
b0000000001010110 pc
#75937
b0000000001010111 pc
#76062
b0000000001010110 pc
#76125
b0000000001010111 pc
#76250
b0000000001010110 pc
#76312
b0000000001010111 pc
#76437
b0000000001010110 pc
#76500
b0000000001010111 pc
#76625
b0000000001010110 pc
#76687
b0000000001010111 pc
#76812
b0000000001010110 pc
#76875
b0000000001010111 pc
#77000
b0000000001010110 pc
#77062
b0000000001010111 pc
#77187
b0000000001010110 pc
#77250
b0000000001010111 pc
#77375
b0000000001010110 pc
#77437
b0000000001010111 pc
#77562
b0000000001010110 pc
#77625
b0000000001010111 pc
#77750
b0000000001010110 pc
#77812
b0000000001010111 pc
#77937
b0000000001010110 pc
#78000
b0000000001010111 pc
#78125
b0000000001010110 pc
#78187
b0000000001010111 pc
#78312
b0000000001010110 pc
#78375
b0000000001010111 pc
#78500
b0000000001010110 pc
#78562
b0000000001010111 pc
#78687
b0000000001010110 pc
#78750
b0000000001010111 pc
#78875
b0000000001010110 pc
#78937
b0000000001010111 pc
#79062
b0000000001010110 pc
#79125
b0000000001010111 pc
#79250
b0000000001010110 pc
#79312
b0000000001010111 pc
#79437
b0000000001010110 pc
#79500
b0000000001010111 pc
#79625
b0000000001010110 pc
#79687
b0000000001010111 pc
#79812
b0000000001010110 pc
#79875
b0000000001010111 pc
#80000
b0000000001010110 pc
#80062
b0000000001010111 pc
#80187
b0000000001010110 pc
#80250
b0000000001010111 pc
#80375
b0000000001010110 pc
#80437
b0000000001010111 pc
#80562
b0000000001010110 pc
#80625
b0000000001010111 pc
#80750
b0000000001010110 pc
#80812
b0000000001010111 pc
#80937
b0000000001010110 pc
#81000
b0000000001010111 pc
#81125
b0000000001010110 pc
#81187
b0000000001010111 pc
#81312
b0000000001010110 pc
#81375
b0000000001010111 pc
#81500
b0000000001010110 pc
#81562
b0000000001010111 pc
#81687
b0000000001010110 pc
#81750
b0000000001010111 pc
#81875
b0000000001010110 pc
#81937
b0000000001010111 pc
#82062
b0000000001010110 pc
#82125
b0000000001010111 pc
#82250
b0000000001010110 pc
#82312
b0000000001010111 pc
#82437
b0000000001010110 pc
#82500
b0000000001010111 pc
#82625
b0000000001010110 pc
#82687
b0000000001010111 pc
#82812
b0000000001010110 pc
#82875
b0000000001010111 pc
#83000
b0000000001010110 pc
#83062
b0000000001010111 pc
#83187
b0000000001010110 pc
#83250
b0000000001010111 pc
#83375
b0000000001010110 pc
#83437
b0000000001010111 pc
#83562
b0000000001010110 pc
#83625
b0000000001010111 pc
#83750
b0000000001010110 pc
#83812
b0000000001010111 pc
#83875
b0000000001011000 pc
#83937
b0000000001011001 pc
#84062
b0000000001001001 pc
#84187
b0000000001001011 pc
#84250
b0000000001001100 pc
#84375
b0000000001001110 pc
#84500
b0000000001010000 pc
#84562
b0000000001010001 pc
#84687
b0000000001001110 pc
#84812
b0000000001010000 pc
#85000
b0000000001001110 pc
#85125
b0000000001010000 pc
#85187
b0000000001010001 pc
#85312
b0000000001001110 pc
#85437
b0000000001010000 pc
#85562
b0000000001010010 pc
#85687
b0000000001010100 pc
#85750
1p16
0p18
0p19
0p20
1p21
b0000000001010101 pc
#85812
b0000000001010110 pc
#85875
b0000000001010111 pc
#86000
b0000000001010110 pc
#86062
b0000000001010111 pc
#86187
b0000000001010110 pc
#86250
b0000000001010111 pc
#86375
b0000000001010110 pc
#86437
b0000000001010111 pc
#86562
b0000000001010110 pc
#86625
b0000000001010111 pc
#86750
b0000000001010110 pc
#86812
b0000000001010111 pc
#86937
b0000000001010110 pc
#87000
b0000000001010111 pc
#87125
b0000000001010110 pc
#87187
b0000000001010111 pc
#87312
b0000000001010110 pc
#87375
b0000000001010111 pc
#87500
b0000000001010110 pc
#87562
b0000000001010111 pc
#87687
b0000000001010110 pc
#87750
b0000000001010111 pc
#87875
b0000000001010110 pc
#87937
b0000000001010111 pc
#88062
b0000000001010110 pc
#88125
b0000000001010111 pc
#88250
b0000000001010110 pc
#88312
b0000000001010111 pc
#88437
b0000000001010110 pc
#88500
b0000000001010111 pc
#88625
b0000000001010110 pc
#88687
b0000000001010111 pc
#88812
b0000000001010110 pc
#88875
b0000000001010111 pc
#89000
b0000000001010110 pc
#89062
b0000000001010111 pc
#89187
b0000000001010110 pc
#89250
b0000000001010111 pc
#89375
b0000000001010110 pc
#89437
b0000000001010111 pc
#89562
b0000000001010110 pc
#89625
b0000000001010111 pc
#89750
b0000000001010110 pc
#89812
b0000000001010111 pc
#89937
b0000000001010110 pc
#90000
b0000000001010111 pc
#90125
b0000000001010110 pc
#90187
b0000000001010111 pc
#90312
b0000000001010110 pc
#90375
b0000000001010111 pc
#90500
b0000000001010110 pc
#90562
b0000000001010111 pc
#90687
b0000000001010110 pc
#90750
b0000000001010111 pc
#90875
b0000000001010110 pc
#90937
b0000000001010111 pc
#91062
b0000000001010110 pc
#91125
b0000000001010111 pc
#91250
b0000000001010110 pc
#91312
b0000000001010111 pc
#91437
b0000000001010110 pc
#91500
b0000000001010111 pc
#91625
b0000000001010110 pc
#91687
b0000000001010111 pc
#91812
b0000000001010110 pc
#91875
b0000000001010111 pc
#92000
b0000000001010110 pc
#92062
b0000000001010111 pc
#92187
b0000000001010110 pc
#92250
b0000000001010111 pc
#92375
b0000000001010110 pc
#92437
b0000000001010111 pc
#92562
b0000000001010110 pc
#92625
b0000000001010111 pc
#92750
b0000000001010110 pc
#92812
b0000000001010111 pc
#92937
b0000000001010110 pc
#93000
b0000000001010111 pc
#93125
b0000000001010110 pc
#93187
b0000000001010111 pc
#93312
b0000000001010110 pc
#93375
b0000000001010111 pc
#93500
b0000000001010110 pc
#93562
b0000000001010111 pc
#93687
b0000000001010110 pc
#93750
b0000000001010111 pc
#93875
b0000000001010110 pc
#93937
b0000000001010111 pc
#94062
b0000000001010110 pc
#94125
b0000000001010111 pc
#94250
b0000000001010110 pc
#94312
b0000000001010111 pc
#94437
b0000000001010110 pc
#94500
b0000000001010111 pc
#94625
b0000000001010110 pc
#94687
b0000000001010111 pc
#94812
b0000000001010110 pc
#94875
b0000000001010111 pc
#95000
b0000000001010110 pc
#95062
b0000000001010111 pc
#95187
b0000000001010110 pc
#95250
b0000000001010111 pc
#95375
b0000000001010110 pc
#95437
b0000000001010111 pc
#95562
b0000000001010110 pc
#95625
b0000000001010111 pc
#95687
b0000000001011000 pc
#95750
b0000000001011001 pc
#95875
b0000000001001001 pc
#96000
b0000000001001011 pc
#96062
b0000000001001100 pc
#96187
b0000000001001110 pc
#96312
b0000000001010000 pc
#96375
b0000000001010001 pc
#96500
b0000000001001110 pc
#96625
b0000000001010000 pc
#96812
b0000000001001110 pc
#96937
b0000000001010000 pc
#97125
b0000000001001110 pc
#97250
b0000000001010000 pc
#97375
b0000000001010010 pc
#97500
b0000000001010100 pc
#97562
1p18
b0000000001010101 pc
#97625
b0000000001010110 pc
#97687
b0000000001010111 pc
#97812
b0000000001010110 pc
#97875
b0000000001010111 pc
#98000
b0000000001010110 pc
#98062
b0000000001010111 pc
#98187
b0000000001010110 pc
#98375
#98437
b0000000001010111 pc
#98562
b0000000001010110 pc
#98625
b0000000001010111 pc
#98750
b0000000001010110 pc
#98812
b0000000001010111 pc
#98937
b0000000001010110 pc
#99000
b0000000001010111 pc
#99125
b0000000001010110 pc
#99187
b0000000001010111 pc
#99312
b0000000001010110 pc
#99375
b0000000001010111 pc
#99500
b0000000001010110 pc
#99562
b0000000001010111 pc
#99687
b0000000001010110 pc
#99750
b0000000001010111 pc
#99875
b0000000001010110 pc
#99937
b0000000001010111 pc
#100062
b0000000001010110 pc
#100125
b0000000001010111 pc
#100250
b0000000001010110 pc
#100312
b0000000001010111 pc
#100437
b0000000001010110 pc
#100500
b0000000001010111 pc
#100625
b0000000001010110 pc
#100687
b0000000001010111 pc
#100812
b0000000001010110 pc
#100875
b0000000001010111 pc
#101000
b0000000001010110 pc
#101062
b0000000001010111 pc
#101187
b0000000001010110 pc
#101250
b0000000001010111 pc
#101375
b0000000001010110 pc
#101437
b0000000001010111 pc
#101562
b0000000001010110 pc
#101625
b0000000001010111 pc
#101750
b0000000001010110 pc
#101812
b0000000001010111 pc
#101937
b0000000001010110 pc
#102000
b0000000001010111 pc
#102125
b0000000001010110 pc
#102187
b0000000001010111 pc
#102312
b0000000001010110 pc
#102375
b0000000001010111 pc
#102500
b0000000001010110 pc
#102562
b0000000001010111 pc
#102687
b0000000001010110 pc
#102750
b0000000001010111 pc
#102875
b0000000001010110 pc
#102937
b0000000001010111 pc
#103062
b0000000001010110 pc
#103125
b0000000001010111 pc
#103250
b0000000001010110 pc
#103312
b0000000001010111 pc
#103437
b0000000001010110 pc
#103500
b0000000001010111 pc
#103625
b0000000001010110 pc
#103687
b0000000001010111 pc
#103812
b0000000001010110 pc
#103875
b0000000001010111 pc
#104000
b0000000001010110 pc
#104062
b0000000001010111 pc
#104187
b0000000001010110 pc
#104250
b0000000001010111 pc
#104375
b0000000001010110 pc
#104437
b0000000001010111 pc
#104562
b0000000001010110 pc
#104625
b0000000001010111 pc
#104750
b0000000001010110 pc
#104812
b0000000001010111 pc
#104937
b0000000001010110 pc
#105000
b0000000001010111 pc
#105125
b0000000001010110 pc
#105187
b0000000001010111 pc
#105312
b0000000001010110 pc
#105375
b0000000001010111 pc
#105500
b0000000001010110 pc
#105562
b0000000001010111 pc
#105687
b0000000001010110 pc
#105750
b0000000001010111 pc
#105875
b0000000001010110 pc
#105937
b0000000001010111 pc
#106062
b0000000001010110 pc
#106125
b0000000001010111 pc
#106250
b0000000001010110 pc
#106312
b0000000001010111 pc
#106437
b0000000001010110 pc
#106500
b0000000001010111 pc
#106625
b0000000001010110 pc
#106687
b0000000001010111 pc
#106812
b0000000001010110 pc
#106875
b0000000001010111 pc
#107000
b0000000001010110 pc
#107062
b0000000001010111 pc
#107187
b0000000001010110 pc
#107250
b0000000001010111 pc
#107375
b0000000001010110 pc
#107437
b0000000001010111 pc
#107562
b0000000001011001 pc
#107687
b0000000001001001 pc
#107812
b0000000001001011 pc
#107875
b0000000001001100 pc
#108000
b0000000001001110 pc
#108125
b0000000001010000 pc
#108187
b0000000001010001 pc
#108312
b0000000001001110 pc
#108437
b0000000001010000 pc
#108500
b0000000001010001 pc
#108625
b0000000001001110 pc
#108750
b0000000001010000 pc
#108812
b0000000001010001 pc
#108937
b0000000001001110 pc
#109062
b0000000001010000 pc
#109187
b0000000001010010 pc
#109312
b0000000001010100 pc
#109375
0p16
1p17
0p18
1p19
b0000000001010101 pc
#109437
b0000000001010110 pc
#109500
b0000000001010111 pc
#109625
b0000000001010110 pc
#109687
b0000000001010111 pc
#109812
b0000000001010110 pc
#109875
b0000000001010111 pc
#110000
b0000000001010110 pc
#110062
b0000000001010111 pc
#110187
b0000000001010110 pc
#110250
b0000000001010111 pc
#110375
b0000000001010110 pc
#110437
b0000000001010111 pc
#110562
b0000000001010110 pc
