scratch/gui_server/trace.vcd
$date Wed May 20 04:55:43 2026
$end
$version VioAVR 1.0 $end
$timescale 1ns $end
$scope module top $end
$var wire 1 p0 pin_0 $end
$var wire 1 p1 pin_1 $end
$var wire 1 p10 pin_10 $end
$var wire 1 p11 pin_11 $end
$var wire 1 p12 pin_12 $end
$var wire 1 p13 pin_13 $end
$var wire 1 p14 pin_14 $end
$var wire 1 p15 pin_15 $end
$var wire 1 p16 pin_16 $end
$var wire 1 p17 pin_17 $end
$var wire 1 p18 pin_18 $end
$var wire 1 p19 pin_19 $end
$var wire 1 p2 pin_2 $end
$var wire 1 p20 pin_20 $end
$var wire 1 p21 pin_21 $end
$var wire 1 p22 pin_22 $end
$var wire 1 p23 pin_23 $end
$var wire 1 p24 pin_24 $end
$var wire 1 p25 pin_25 $end
$var wire 1 p26 pin_26 $end
$var wire 1 p27 pin_27 $end
$var wire 1 p28 pin_28 $end
$var wire 1 p29 pin_29 $end
$var wire 1 p3 pin_3 $end
$var wire 1 p30 pin_30 $end
$var wire 1 p31 pin_31 $end
$var wire 1 p4 pin_4 $end
$var wire 1 p5 pin_5 $end
$var wire 1 p6 pin_6 $end
$var wire 1 p7 pin_7 $end
$var wire 1 p8 pin_8 $end
$var wire 1 p9 pin_9 $end
$var wire 16 pc pc $end
$upscope $end
$enddefinitions $end
$dumpvars
$end
#187
0p0
0p1
0p2
0p3
0p4
0p5
0p6
0p7
0p8
0p9
0p10
0p11
0p12
0p13
0p14
0p15
0p16
0p17
0p18
0p19
0p20
0p21
0p22
0p23
0p24
0p25
0p26
0p27
0p28
0p29
0p30
0p31
b0000000000110100 pc
#250
b0000000000110101 pc
#437
b0000000000111000 pc
#812
b0000000001000000 pc
#1187
1p1
b0000000001000011 pc
#1250
b0000000001000100 pc
#1312
b0000000001000101 pc
#1437
b0000000001010000 pc
#1500
b0000000001010001 pc
#1875
1p0
b0000000001010110 pc
#2000
b0000000001010101 pc
#2250
#2375
b0000000001010110 pc
#2500
b0000000001010101 pc
#2625
b0000000001010110 pc
#2750
b0000000001010101 pc
#3000
#3125
b0000000001010110 pc
#3250
b0000000001010101 pc
#3500
#3625
b0000000001010110 pc
#3750
b0000000001010101 pc
#3875
b0000000001010110 pc
#4000
b0000000001010101 pc
#4250
#4375
b0000000001010110 pc
#4500
b0000000001010101 pc
#4750
#4875
b0000000001010110 pc
#5000
b0000000001010101 pc
#5125
b0000000001010110 pc
#5250
b0000000001010101 pc
#5500
#5625
b0000000001010110 pc
#5750
b0000000001010101 pc
#6000
#6125
b0000000001010110 pc
#6250
b0000000001010101 pc
#6375
b0000000001010110 pc
#6500
b0000000001010101 pc
#6750
#6875
b0000000001010110 pc
#7000
b0000000001010101 pc
#7250
#7375
b0000000001010110 pc
#7500
b0000000001010101 pc
#7625
b0000000001010110 pc
#7750
b0000000001010101 pc
#7875
b0000000001010110 pc
#8125
#8250
b0000000001010101 pc
#8375
b0000000001010110 pc
#8625
#8750
b0000000001010101 pc
#8875
b0000000001010110 pc
#9000
b0000000001010101 pc
#9125
b0000000001010110 pc
#9250
b0000000001010101 pc
#9500
#9625
b0000000001010110 pc
#9750
b0000000001010101 pc
#10000
#10125
b0000000001010110 pc
#10250
b0000000001010101 pc
#10375
b0000000001010110 pc
#10500
b0000000001010101 pc
#10750
#10875
b0000000001010110 pc
#11000
b0000000001010101 pc
#11250
#11375
b0000000001010110 pc
#11500
b0000000001010101 pc
#11625
b0000000001010110 pc
#11750
b0000000001010101 pc
#12000
#12125
b0000000001010110 pc
#12250
b0000000001010101 pc
#12500
#12625
b0000000001010110 pc
#12750
b0000000001010101 pc
#12875
b0000000001010110 pc
#13000
b0000000001010101 pc
#13250
#13375
b0000000001010110 pc
#13500
b0000000001010101 pc
#13750
#13875
b0000000001010110 pc
#14000
b0000000001010101 pc
#14125
b0000000001010110 pc
#14250
b0000000001010101 pc
#14500
#14625
b0000000001010110 pc
#14750
b0000000001010101 pc
#15000
#15125
b0000000001010110 pc
#15250
b0000000001010101 pc
#15375
b0000000001010110 pc
#15500
b0000000001010101 pc
#15750
#15875
b0000000001010110 pc
#16000
b0000000001010101 pc
#16250
#16375
b0000000001010110 pc
#16500
b0000000001010101 pc
#16625
b0000000001010110 pc
#16750
b0000000001010101 pc
#17000
#17125
b0000000001010110 pc
#17250
b0000000001010101 pc
#17500
#17625
b0000000001010110 pc
#17750
b0000000001010101 pc
#17875
b0000000001010110 pc
#18000
b0000000001010101 pc
#18250
#18375
b0000000001010110 pc
#18500
b0000000001010101 pc
#18750
#18875
b0000000001010110 pc
#19000
b0000000001010101 pc
#19125
b0000000001010110 pc
#19250
b0000000001010101 pc
#19500
#19625
b0000000001010110 pc
#19750
b0000000001010101 pc
#20000
#20125
b0000000001010110 pc
#20250
b0000000001010101 pc
#20375
b0000000001010110 pc
#20500
b0000000001010101 pc
#20750
#20875
b0000000001010110 pc
#21000
b0000000001010101 pc
#21250
#21375
b0000000001010110 pc
#21500
b0000000001010101 pc
#21625
b0000000001010110 pc
#21750
b0000000001010101 pc
#22000
#22125
b0000000001010110 pc
#22250
b0000000001010101 pc
#22500
#22625
b0000000001010110 pc
#22750
b0000000001010101 pc
#22875
b0000000001010110 pc
#23000
b0000000001010101 pc
#23250
#23375
b0000000001010110 pc
#23500
b0000000001010101 pc
#23750
#23875
b0000000001010110 pc
#24000
b0000000001010101 pc
#24125
b0000000001010110 pc
#24250
b0000000001010101 pc
#24500
#24625
b0000000001010110 pc
#24750
b0000000001010101 pc
#25000
#25125
b0000000001010110 pc
#25250
b0000000001010101 pc
#25375
b0000000001010110 pc
#25500
b0000000001010101 pc
#25750
#25875
b0000000001010110 pc
#26000
b0000000001010101 pc
#26250
#26375
b0000000001010110 pc
#26500
b0000000001010101 pc
#26625
b0000000001010110 pc
#26750
b0000000001010101 pc
#27000
#27125
b0000000001010110 pc
#27250
b0000000001010101 pc
#27500
#27625
b0000000001010110 pc
#27750
b0000000001010101 pc
#27875
b0000000001010110 pc
#28000
b0000000001010101 pc
#28250
#28375
b0000000001010110 pc
#28500
b0000000001010101 pc
#28750
#28875
b0000000001010110 pc
#29000
b0000000001010101 pc
#29125
b0000000001010110 pc
#29250
b0000000001010101 pc
#29500
#29625
b0000000001010110 pc
#29750
b0000000001010101 pc
#30000
#30125
b0000000001010110 pc
#30250
b0000000001010101 pc
#30375
b0000000001010110 pc
#30500
b0000000001010101 pc
#30750
#30875
b0000000001010110 pc
#31000
b0000000001010101 pc
#31250
#31375
b0000000001010110 pc
#31500
b0000000001010101 pc
#31625
b0000000001010110 pc
#31750
b0000000001010101 pc
#32000
#32125
b0000000001010110 pc
#32250
b0000000001010101 pc
#32500
#32625
b0000000001010110 pc
#32750
b0000000001010101 pc
#32875
b0000000001010110 pc
#33000
b0000000001010101 pc
#33250
#33375
b0000000001010110 pc
#33500
b0000000001010101 pc
#33750
#33875
b0000000001010110 pc
#34000
b0000000001010101 pc
#34125
b0000000001010110 pc
#34250
b0000000001010101 pc
#34500
#34625
b0000000001010110 pc
#34750
b0000000001010101 pc
#35000
#35125
b0000000001010110 pc
#35250
b0000000001010101 pc
#35375
b0000000001010110 pc
#35500
b0000000001010101 pc
#35750
#35875
b0000000001010110 pc
#36000
b0000000001010101 pc
#36250
#36375
b0000000001010110 pc
#36500
b0000000001010101 pc
#36625
b0000000001010110 pc
#36750
b0000000001010101 pc
#37000
#37125
b0000000001010110 pc
#37250
b0000000001010101 pc
#37500
#37625
b0000000001010110 pc
#37750
b0000000001010101 pc
#37875
b0000000001010110 pc
#38000
b0000000001010101 pc
#38250
#38375
b0000000001010110 pc
#38500
b0000000001010101 pc
#38750
#38875
b0000000001010110 pc
#39000
b0000000001010101 pc
#39125
b0000000001010110 pc
#39250
b0000000001010101 pc
#39500
#39625
b0000000001010110 pc
#39750
b0000000001010101 pc
#40000
#40125
b0000000001010110 pc
#40250
b0000000001010101 pc
#40375
b0000000001010110 pc
#40500
b0000000001010101 pc
#40750
#40875
b0000000001010110 pc
#41000
b0000000001010101 pc
#41250
#41375
b0000000001010110 pc
#41500
b0000000001010101 pc
#41625
b0000000001010110 pc
#41750
b0000000001010101 pc
#42000
#42125
b0000000001010110 pc
#42250
b0000000001010101 pc
#42500
#42625
b0000000001010110 pc
#42750
b0000000001010101 pc
#42875
b0000000001010110 pc
#43000
b0000000001010101 pc
#43250
#43375
b0000000001010110 pc
#43500
b0000000001010101 pc
#43750
#43875
b0000000001010110 pc
#44000
b0000000001010101 pc
#44125
b0000000001010110 pc
#44250
b0000000001010101 pc
#44500
#44625
b0000000001010110 pc
#44750
b0000000001010101 pc
#45000
#45125
b0000000001010110 pc
#45250
b0000000001010101 pc
#45375
b0000000001010110 pc
#45500
b0000000001010101 pc
#45625
b0000000001010110 pc
#45875
#46000
b0000000001010101 pc
#46125
b0000000001010110 pc
#46375
#46500
b0000000001010101 pc
#46625
b0000000001010110 pc
#46750
b0000000001010101 pc
#46875
b0000000001010110 pc
#47000
b0000000001010101 pc
#47250
#47375
b0000000001010110 pc
#47500
b0000000001010101 pc
#47750
#47875
b0000000001010110 pc
#48000
b0000000001010101 pc
#48125
b0000000001010110 pc
#48250
b0000000001010101 pc
#48375
b0000000001010110 pc
#48625
#48750
b0000000001010101 pc
#48875
b0000000001010110 pc
#49125
#49250
b0000000001010101 pc
#49375
b0000000001010110 pc
#49500
b0000000001010101 pc
#49625
b0000000001010110 pc
#49750
b0000000001010101 pc
#50000
#50125
b0000000001010110 pc
#50250
b0000000001010101 pc
#50500
#50625
b0000000001010110 pc
#50750
b0000000001010101 pc
#50875
b0000000001010110 pc
#51000
b0000000001010101 pc
#51125
b0000000001010110 pc
#51375
#51500
b0000000001010101 pc
#51625
b0000000001010110 pc
#51875
#52000
b0000000001010101 pc
#52125
b0000000001010110 pc
#52250
b0000000001010101 pc
#52375
b0000000001010110 pc
#52500
b0000000001010101 pc
#52750
#52875
b0000000001010110 pc
#53000
b0000000001010101 pc
#53250
#53375
b0000000001010110 pc
#53500
b0000000001010101 pc
#53625
b0000000001010110 pc
#53750
b0000000001010101 pc
#53875
b0000000001010110 pc
#54125
#54250
b0000000001010101 pc
#54375
b0000000001010110 pc
#54625
#54750
b0000000001010101 pc
#54875
b0000000001010110 pc
#55000
b0000000001010101 pc
#55125
b0000000001010110 pc
#55250
b0000000001010101 pc
#55500
#55625
b0000000001010110 pc
#55750
b0000000001010101 pc
#56000
#56125
b0000000001010110 pc
#56250
b0000000001010101 pc
#56375
b0000000001010110 pc
#56500
b0000000001010101 pc
#56625
b0000000001010110 pc
#56875
#57000
b0000000001010101 pc
#57125
b0000000001010110 pc
#57375
#57500
b0000000001010101 pc
#57625
b0000000001010110 pc
#57750
b0000000001010101 pc
#57875
b0000000001010110 pc
#58000
b0000000001010101 pc
#58250
#58375
b0000000001010110 pc
#58500
b0000000001010101 pc
#58750
#58875
b0000000001010110 pc
#59000
b0000000001010101 pc
#59125
b0000000001010110 pc
#59250
b0000000001010101 pc
#59375
b0000000001010110 pc
#59625
#59750
b0000000001010101 pc
#59875
b0000000001010110 pc
#60125
#60250
b0000000001010101 pc
#60375
b0000000001010110 pc
#60500
b0000000001010101 pc
#60625
b0000000001010110 pc
#60750
b0000000001010101 pc
#61000
#61125
b0000000001010110 pc
#61250
b0000000001010101 pc
#61500
#61625
b0000000001010110 pc
#61750
b0000000001010101 pc
#61875
b0000000001010110 pc
#62000
b0000000001010101 pc
#62125
b0000000001010110 pc
#62375
#62500
b0000000001010101 pc
#62625
b0000000001010110 pc
#62875
#63000
b0000000001010101 pc
#63125
b0000000001010110 pc
#63250
b0000000001010101 pc
#63375
b0000000001010110 pc
#63500
b0000000001010101 pc
#63750
#63875
b0000000001010110 pc
#64000
b0000000001010101 pc
#64250
#64375
b0000000001010110 pc
#64500
b0000000001010101 pc
#64625
b0000000001010110 pc
#64750
b0000000001010101 pc
#64875
b0000000001010110 pc
#65125
#65250
b0000000001010101 pc
#65375
b0000000001010110 pc
#65625
#65750
b0000000001010101 pc
#65875
b0000000001010110 pc
#66000
b0000000001010101 pc
#66125
b0000000001010110 pc
#66250
b0000000001010101 pc
#66500
#66625
b0000000001010110 pc
#66750
b0000000001010101 pc
#67000
#67125
b0000000001010110 pc
#67250
b0000000001010101 pc
#67375
b0000000001010110 pc
#67500
b0000000001010101 pc
#67625
b0000000001010110 pc
#67875
#68000
b0000000001010101 pc
#68125
b0000000001010110 pc
#68375
#68500
b0000000001010101 pc
#68625
b0000000001010110 pc
#68750
b0000000001010101 pc
#68875
b0000000001010110 pc
#69000
b0000000001010101 pc
#69250
#69375
b0000000001010110 pc
#69500
b0000000001010101 pc
#69750
#69875
b0000000001010110 pc
#70000
b0000000001010101 pc
#70125
b0000000001010110 pc
#70250
b0000000001010101 pc
#70375
b0000000001010110 pc
#70625
#70750
b0000000001010101 pc
#70875
b0000000001010110 pc
#71125
#71250
b0000000001010101 pc
#71375
b0000000001010110 pc
#71500
b0000000001010101 pc
#71625
b0000000001010110 pc
#71750
b0000000001010101 pc
#72000
#72125
b0000000001010110 pc
#72250
b0000000001010101 pc
#72500
#72625
b0000000001010110 pc
#72750
b0000000001010101 pc
#72875
b0000000001010110 pc
#73000
b0000000001010101 pc
#73125
b0000000001010110 pc
#73375
#73500
b0000000001010101 pc
#73625
b0000000001010110 pc
#73875
#74000
b0000000001010101 pc
#74125
b0000000001010110 pc
#74250
b0000000001010101 pc
#74375
b0000000001010110 pc
#74500
b0000000001010101 pc
#74750
#74875
b0000000001010110 pc
#75000
b0000000001010101 pc
#75250
#75375
b0000000001010110 pc
#75500
b0000000001010101 pc
#75625
b0000000001010110 pc
#75750
b0000000001010101 pc
#75875
b0000000001010110 pc
#76125
#76250
b0000000001010101 pc
#76375
b0000000001010110 pc
#76625
#76750
b0000000001010101 pc
#76875
b0000000001010110 pc
#77000
b0000000001010101 pc
#77125
b0000000001010110 pc
#77250
b0000000001010101 pc
#77500
#77625
b0000000001010110 pc
#77750
b0000000001010101 pc
#78000
#78125
b0000000001010110 pc
#78250
b0000000001010101 pc
#78375
b0000000001010110 pc
#78500
b0000000001010101 pc
#78625
b0000000001010110 pc
#78875
#79000
b0000000001010101 pc
#79125
b0000000001010110 pc
#79375
#79500
b0000000001010101 pc
#79625
b0000000001010110 pc
#79750
b0000000001010101 pc
#79875
b0000000001010110 pc
#80000
b0000000001010101 pc
#80250
#80375
b0000000001010110 pc
#80500
b0000000001010101 pc
#80750
#80875
b0000000001010110 pc
#81000
b0000000001010101 pc
#81125
b0000000001010110 pc
#81250
b0000000001010101 pc
#81375
b0000000001010110 pc
#81625
#81750
b0000000001010101 pc
#81875
b0000000001010110 pc
#82125
#82250
b0000000001010101 pc
#82375
b0000000001010110 pc
#82500
b0000000001010101 pc
#82625
b0000000001010110 pc
#82750
b0000000001010101 pc
#83000
#83125
b0000000001010110 pc
#83250
b0000000001010101 pc
#83500
#83625
b0000000001010110 pc
#83750
b0000000001010101 pc
#83875
b0000000001010110 pc
#84000
b0000000001010101 pc
#84125
b0000000001010110 pc
#84375
#84500
b0000000001010101 pc
#84625
b0000000001010110 pc
#84875
#85000
b0000000001010101 pc
#85125
b0000000001010110 pc
#85250
b0000000001010101 pc
#85375
b0000000001010110 pc
#85500
b0000000001010101 pc
#85750
#85875
b0000000001010110 pc
#86000
b0000000001010101 pc
#86250
#86375
b0000000001010110 pc
#86500
b0000000001010101 pc
#86625
b0000000001010110 pc
#86750
b0000000001010101 pc
#86875
b0000000001010110 pc
#87125
#87250
b0000000001010101 pc
#87375
b0000000001010110 pc
#87625
#87750
b0000000001010101 pc
#87875
b0000000001010110 pc
#88000
b0000000001010101 pc
#88125
b0000000001010110 pc
#88250
b0000000001010101 pc
#88500
#88625
b0000000001010110 pc
#88750
b0000000001010101 pc
#89000
#89125
b0000000001010110 pc
#89250
b0000000001010101 pc
#89375
b0000000001010110 pc
#89500
b0000000001010101 pc
#89625
b0000000001010110 pc
#89875
#90000
b0000000001010101 pc
#90125
b0000000001010110 pc
#90375
#90500
b0000000001010101 pc
#90625
b0000000001010110 pc
#90750
b0000000001010101 pc
#90875
b0000000001010110 pc
#91000
b0000000001010101 pc
#91250
#91375
b0000000001010110 pc
#91500
b0000000001010101 pc
#91750
#91875
b0000000001010110 pc
#92000
b0000000001010101 pc
#92125
b0000000001010110 pc
#92250
b0000000001010101 pc
#92375
b0000000001010110 pc
#92625
#92750
b0000000001010101 pc
#92875
b0000000001010110 pc
#93125
#93250
b0000000001010101 pc
#93375
b0000000001010110 pc
#93500
b0000000001010101 pc
#93625
b0000000001010110 pc
#93750
b0000000001010101 pc
#94000
#94125
b0000000001010110 pc
#94250
b0000000001010101 pc
#94500
#94625
b0000000001010110 pc
#94750
b0000000001010101 pc
#94875
b0000000001010110 pc
#95000
b0000000001010101 pc
#95125
b0000000001010110 pc
#95375
#95500
b0000000001010101 pc
#95625
b0000000001010110 pc
#95875
#96000
b0000000001010101 pc
#96125
b0000000001010110 pc
#96250
b0000000001010101 pc
#96375
b0000000001010110 pc
#96500
b0000000001010101 pc
#96750
#96875
b0000000001010110 pc
#97000
b0000000001010101 pc
#97250
#97375
b0000000001010110 pc
#97500
b0000000001010101 pc
#97625
b0000000001010110 pc
#97750
b0000000001010101 pc
#97875
b0000000001010110 pc
#98125
#98250
b0000000001010101 pc
#98375
b0000000001010110 pc
#98625
#98750
b0000000001010101 pc
#98875
b0000000001010110 pc
#99000
b0000000001010101 pc
#99125
b0000000001010110 pc
#99250
b0000000001010101 pc
#99500
#99625
b0000000001010110 pc
#99750
b0000000001010101 pc
#100000
#100125
b0000000001010110 pc
#100250
b0000000001010101 pc
#100375
b0000000001010110 pc
#100500
b0000000001010101 pc
#100625
b0000000001010110 pc
#100875
#101000
b0000000001010101 pc
#101125
b0000000001010110 pc
#101375
#101500
b0000000001010101 pc
#101625
b0000000001010110 pc
#101750
b0000000001010101 pc
#101875
b0000000001010110 pc
#102000
b0000000001010101 pc
#102250
#102375
b0000000001010110 pc
#102500
b0000000001010101 pc
#102750
#102875
b0000000001010110 pc
#103000
b0000000001010101 pc
#103125
b0000000001010110 pc
#103250
b0000000001010101 pc
#103375
b0000000001010110 pc
#103625
#103750
b0000000001010101 pc
#103875
b0000000001010110 pc
#104125
#104250
b0000000001010101 pc
#104375
b0000000001010110 pc
#104500
b0000000001010101 pc
#104625
b0000000001010110 pc
#104750
b0000000001010101 pc
#105000
#105125
b0000000001010110 pc
#105250
b0000000001010101 pc
#105500
#105625
b0000000001010110 pc
#105750
b0000000001010101 pc
#105875
b0000000001010110 pc
#106000
b0000000001010101 pc
#106125
b0000000001010110 pc
#106375
#106500
b0000000001010101 pc
#106625
b0000000001010110 pc
#106875
#107000
b0000000001010101 pc
#107125
b0000000001010110 pc
#107250
b0000000001010101 pc
#107375
b0000000001010110 pc
#107500
b0000000001010101 pc
#107750
#107875
b0000000001010110 pc
#108000
b0000000001010101 pc
#108250
#108375
b0000000001010110 pc
#108500
b0000000001010101 pc
#108625
b0000000001010110 pc
#108750
b0000000001010101 pc
#108875
b0000000001010110 pc
#109125
#109250
b0000000001010101 pc
#109375
b0000000001010110 pc
#109625
#109750
b0000000001010101 pc
#109875
b0000000001010110 pc
#110000
b0000000001010101 pc
#110125
b0000000001010110 pc
#110250
b0000000001010101 pc
#110500
#110625
b0000000001010110 pc
#110750
b0000000001010101 pc
#111000
#111125
b0000000001010110 pc
#111250
b0000000001010101 pc
#111375
b0000000001010110 pc
#111500
b0000000001010101 pc
#111625
b0000000001010110 pc
#111875
#112000
b0000000001010101 pc
#112125
b0000000001010110 pc
#112375
#112500
b0000000001010101 pc
#112625
b0000000001010110 pc
#112750
b0000000001010101 pc
#112875
b0000000001010110 pc
#113000
b0000000001010101 pc
#113250
#113375
b0000000001010110 pc
#113500
b0000000001010101 pc
#113750
#113875
b0000000001010110 pc
#114000
b0000000001010101 pc
#114125
b0000000001010110 pc
#114250
b0000000001010101 pc
#114375
b0000000001010110 pc
#114625
#114750
b0000000001010101 pc
#114875
b0000000001010110 pc
#115125
#115250
b0000000001010101 pc
#115375
b0000000001010110 pc
#115500
b0000000001010101 pc
#115625
b0000000001010110 pc
#115750
b0000000001010101 pc
#116000
#116125
b0000000001010110 pc
#116250
b0000000001010101 pc
#116500
#116625
b0000000001010110 pc
#116750
b0000000001010101 pc
#116875
b0000000001010110 pc
#117000
b0000000001010101 pc
#117125
b0000000001010110 pc
#117375
#117500
b0000000001010101 pc
#117625
b0000000001010110 pc
#117875
#118000
b0000000001010101 pc
#118125
b0000000001010110 pc
#118250
b0000000001010101 pc
#118375
b0000000001010110 pc
#118500
b0000000001010101 pc
#118750
#118875
b0000000001010110 pc
#119000
b0000000001010101 pc
#119250
#119375
b0000000001010110 pc
#119500
b0000000001010101 pc
#119625
b0000000001010110 pc
#119750
b0000000001010101 pc
#119875
b0000000001010110 pc
#120125
#120250
b0000000001010101 pc
#120375
b0000000001010110 pc
#120625
#120750
b0000000001010101 pc
#120875
b0000000001010110 pc
#121000
b0000000001010101 pc
#121125
b0000000001010110 pc
#121250
b0000000001010101 pc
#121500
#121625
b0000000001010110 pc
#121750
b0000000001010101 pc
#122000
#122125
b0000000001010110 pc
#122250
b0000000001010101 pc
#122375
b0000000001010110 pc
#122500
b0000000001010101 pc
#122625
b0000000001010110 pc
#122875
#123000
b0000000001010101 pc
#123125
b0000000001010110 pc
#123375
#123500
b0000000001010101 pc
#123625
b0000000001010110 pc
#123750
b0000000001010101 pc
#123875
b0000000001010110 pc
#124000
b0000000001010101 pc
#124250
#124375
b0000000001010110 pc
#124500
b0000000001010101 pc
#124750
#124875
b0000000001010110 pc
#125000
b0000000001010101 pc
#125125
b0000000001010110 pc
#125250
b0000000001010101 pc
#125375
b0000000001010110 pc
#125625
#125750
b0000000001010101 pc
#125875
b0000000001010110 pc
#126125
#126250
b0000000001010101 pc
#126375
b0000000001010110 pc
#126500
b0000000001010101 pc
#126625
b0000000001010110 pc
#126750
b0000000001010101 pc
#127000
#127125
b0000000001010110 pc
#127250
b0000000001010101 pc
#127500
#127625
b0000000001010110 pc
#127750
b0000000001010101 pc
#127875
b0000000001010110 pc
#128000
b0000000001010101 pc
#128125
b0000000001010110 pc
#128375
#128500
b0000000001010101 pc
#128625
b0000000001010110 pc
#128875
#129000
b0000000001010101 pc
#129125
b0000000001010110 pc
#129250
b0000000001010101 pc
#129375
b0000000001010110 pc
#129500
b0000000001010101 pc
#129750
#129875
b0000000001010110 pc
#130000
b0000000001010101 pc
#130250
#130375
b0000000001010110 pc
#130500
b0000000001010101 pc
#130625
b0000000001010110 pc
#130750
b0000000001010101 pc
#130875
b0000000001010110 pc
#131125
#131250
b0000000001010101 pc
#131375
b0000000001010110 pc
#131625
#131750
b0000000001010101 pc
#131875
b0000000001010110 pc
#132000
b0000000001010101 pc
#132125
b0000000001010110 pc
#132250
b0000000001010101 pc
#132500
#132625
b0000000001010110 pc
#132750
b0000000001010101 pc
#133000
#133125
b0000000001010110 pc
#133250
b0000000001010101 pc
#133375
b0000000001010110 pc
#133500
b0000000001010101 pc
#133625
b0000000001010110 pc
#133875
#134000
b0000000001010101 pc
#134125
b0000000001010110 pc
#134375
#134500
b0000000001010101 pc
#134625
b0000000001010110 pc
#134750
b0000000001010101 pc
#134875
b0000000001010110 pc
#135000
b0000000001010101 pc
#135250
#135375
b0000000001010110 pc
#135500
b0000000001010101 pc
#135750
#135875
b0000000001010110 pc
#136000
b0000000001010101 pc
#136125
b0000000001010110 pc
#136250
b0000000001010101 pc
#136375
b0000000001010110 pc
#136625
#136750
b0000000001010101 pc
#136875
b0000000001010110 pc
#137125
#137250
b0000000001010101 pc
#137375
b0000000001010110 pc
#137500
b0000000001010101 pc
#137625
b0000000001010110 pc
#137750
b0000000001010101 pc
#138000
#138125
b0000000001010110 pc
#138250
b0000000001010101 pc
#138500
#138625
b0000000001010110 pc
#138750
b0000000001010101 pc
#138875
b0000000001010110 pc
#139000
b0000000001010101 pc
#139125
b0000000001010110 pc
#139375
#139500
b0000000001010101 pc
#139625
b0000000001010110 pc
#139875
#140000
b0000000001010101 pc
#140125
b0000000001010110 pc
#140250
b0000000001010101 pc
#140375
b0000000001010110 pc
#140500
b0000000001010101 pc
#140750
#140875
b0000000001010110 pc
#141000
b0000000001010101 pc
#141250
#141375
b0000000001010110 pc
#141500
b0000000001010101 pc
#141625
b0000000001010110 pc
#141750
b0000000001010101 pc
#141875
b0000000001010110 pc
#142125
#142250
b0000000001010101 pc
#142375
b0000000001010110 pc
#142625
#142750
b0000000001010101 pc
#142875
b0000000001010110 pc
#143000
b0000000001010101 pc
#143125
b0000000001010110 pc
#143250
b0000000001010101 pc
#143500
#143625
b0000000001010110 pc
#143750
b0000000001010101 pc
#144000
#144125
b0000000001010110 pc
#144250
b0000000001010101 pc
#144375
b0000000001010110 pc
#144500
b0000000001010101 pc
#144625
b0000000001010110 pc
#144875
#145000
b0000000001010101 pc
#145125
b0000000001010110 pc
#145375
#145500
b0000000001010101 pc
#145625
b0000000001010110 pc
#145750
b0000000001010101 pc
#145875
b0000000001010110 pc
#146000
b0000000001010101 pc
#146250
#146375
b0000000001010110 pc
#146500
b0000000001010101 pc
#146750
#146875
b0000000001010110 pc
#147000
b0000000001010101 pc
#147125
b0000000001010110 pc
#147250
b0000000001010101 pc
#147375
b0000000001010110 pc
#147625
#147750
b0000000001010101 pc
#147875
b0000000001010110 pc
#148125
#148250
b0000000001010101 pc
#148375
b0000000001010110 pc
#148500
b0000000001010101 pc
#148625
b0000000001010110 pc
#148750
b0000000001010101 pc
#149000
#149125
b0000000001010110 pc
#149250
b0000000001010101 pc
#149500
#149625
b0000000001010110 pc
#149750
b0000000001010101 pc
#149875
b0000000001010110 pc
#150000
b0000000001010101 pc
#150125
b0000000001010110 pc
#150375
#150500
b0000000001010101 pc
#150625
b0000000001010110 pc
#150875
#151000
b0000000001010101 pc
#151125
b0000000001010110 pc
#151250
b0000000001010101 pc
#151375
b0000000001010110 pc
#151500
b0000000001010101 pc
#151750
#151875
b0000000001010110 pc
#152000
b0000000001010101 pc
#152250
#152375
b0000000001010110 pc
#152500
b0000000001010101 pc
#152625
b0000000001010110 pc
#152750
b0000000001010101 pc
#152875
b0000000001010110 pc
#153125
#153250
b0000000001010101 pc
#153375
b0000000001010110 pc
#153625
#153750
b0000000001010101 pc
#153875
b0000000001010110 pc
#154000
b0000000001010101 pc
#154125
b0000000001010110 pc
#154250
b0000000001010101 pc
#154500
#154625
b0000000001010110 pc
#154750
b0000000001010101 pc
#155000
#155125
b0000000001010110 pc
#155250
b0000000001010101 pc
#155375
b0000000001010110 pc
#155500
b0000000001010101 pc
#155625
b0000000001010110 pc
#155875
#156000
b0000000001010101 pc
#156125
b0000000001010110 pc
#156375
#156500
b0000000001010101 pc
#156625
b0000000001010110 pc
#156750
b0000000001010101 pc
#156875
b0000000001010110 pc
#157000
b0000000001010101 pc
#157250
#157375
b0000000001010110 pc
#157500
b0000000001010101 pc
#157750
#157875
b0000000001010110 pc
#158000
b0000000001010101 pc
#158125
b0000000001010110 pc
#158250
b0000000001010101 pc
#158375
b0000000001010110 pc
#158625
#158750
b0000000001010101 pc
#158875
b0000000001010110 pc
#159125
#159250
b0000000001010101 pc
#159375
b0000000001010110 pc
#159500
b0000000001010101 pc
#159625
b0000000001010110 pc
#159750
b0000000001010101 pc
#160000
#160125
b0000000001010110 pc
#160250
b0000000001010101 pc
#160500
#160625
b0000000001010110 pc
#160750
b0000000001010101 pc
#160875
b0000000001010110 pc
#161000
b0000000001010101 pc
#161125
b0000000001010110 pc
#161375
#161500
b0000000001010101 pc
#161625
b0000000001010110 pc
#161875
#162000
b0000000001010101 pc
#162125
b0000000001010110 pc
#162250
b0000000001010101 pc
#162375
b0000000001010110 pc
#162500
b0000000001010101 pc
#162750
#162875
b0000000001010110 pc
#163000
b0000000001010101 pc
#163250
#163375
b0000000001010110 pc
#163500
b0000000001010101 pc
#163625
b0000000001010110 pc
#163750
b0000000001010101 pc
#163875
b0000000001010110 pc
#164125
#164250
b0000000001010101 pc
#164375
b0000000001010110 pc
#164625
#164750
b0000000001010101 pc
#164875
b0000000001010110 pc
#165000
b0000000001010101 pc
#165125
b0000000001010110 pc
#165250
b0000000001010101 pc
#165500
#165625
b0000000001010110 pc
#165750
b0000000001010101 pc
#166000
#166125
b0000000001010110 pc
#166250
b0000000001010101 pc
#166375
b0000000001010110 pc
#166500
b0000000001010101 pc
#166625
b0000000001010110 pc
#166875
#167000
b0000000001010101 pc
#167125
b0000000001010110 pc
#167375
#167500
b0000000001010101 pc
#167625
b0000000001010110 pc
#167750
b0000000001010101 pc
#167875
b0000000001010110 pc
#168000
b0000000001010101 pc
#168250
#168375
b0000000001010110 pc
#168500
b0000000001010101 pc
#168750
#168875
b0000000001010110 pc
#169000
b0000000001010101 pc
#169125
b0000000001010110 pc
#169250
b0000000001010101 pc
#169375
b0000000001010110 pc
#169625
#169750
b0000000001010101 pc
#169875
b0000000001010110 pc
#170125
#170250
b0000000001010101 pc
#170375
b0000000001010110 pc
#170500
b0000000001010101 pc
#170625
b0000000001010110 pc
#170750
b0000000001010101 pc
#171000
#171125
b0000000001010110 pc
#171250
b0000000001010101 pc
#171500
#171625
b0000000001010110 pc
#171750
b0000000001010101 pc
#171875
b0000000001010110 pc
#172000
b0000000001010101 pc
#172125
b0000000001010110 pc
#172375
#172500
b0000000001010101 pc
#172625
b0000000001010110 pc
#172875
#173000
b0000000001010101 pc
#173125
b0000000001010110 pc
#173250
b0000000001010101 pc
#173375
b0000000001010110 pc
#173500
b0000000001010101 pc
#173750
#173875
b0000000001010110 pc
#174000
b0000000001010101 pc
#174250
#174375
b0000000001010110 pc
