scratch/gui_server/trace.vcd
$date Wed May 20 03:30:21 2026
$end
$version VioAVR 1.0 $end
$timescale 1ns $end
$scope module top $end
$var wire 1 p0 pin_0 $end
$var wire 1 p1 pin_1 $end
$var wire 1 p10 pin_10 $end
$var wire 1 p11 pin_11 $end
$var wire 1 p12 pin_12 $end
$var wire 1 p13 pin_13 $end
$var wire 1 p14 pin_14 $end
$var wire 1 p15 pin_15 $end
$var wire 1 p16 pin_16 $end
$var wire 1 p17 pin_17 $end
$var wire 1 p18 pin_18 $end
$var wire 1 p19 pin_19 $end
$var wire 1 p2 pin_2 $end
$var wire 1 p20 pin_20 $end
$var wire 1 p21 pin_21 $end
$var wire 1 p22 pin_22 $end
$var wire 1 p23 pin_23 $end
$var wire 1 p24 pin_24 $end
$var wire 1 p25 pin_25 $end
$var wire 1 p26 pin_26 $end
$var wire 1 p27 pin_27 $end
$var wire 1 p28 pin_28 $end
$var wire 1 p29 pin_29 $end
$var wire 1 p3 pin_3 $end
$var wire 1 p30 pin_30 $end
$var wire 1 p31 pin_31 $end
$var wire 1 p4 pin_4 $end
$var wire 1 p5 pin_5 $end
$var wire 1 p6 pin_6 $end
$var wire 1 p7 pin_7 $end
$var wire 1 p8 pin_8 $end
$var wire 1 p9 pin_9 $end
$var wire 16 pc pc $end
$upscope $end
$enddefinitions $end
$dumpvars
$end
#187
0p0
0p1
0p2
0p3
0p4
0p5
0p6
0p7
0p8
0p9
0p10
0p11
0p12
0p13
0p14
0p15
0p16
0p17
0p18
0p19
0p20
0p21
0p22
0p23
0p24
0p25
0p26
0p27
0p28
0p29
0p30
0p31
b0000000000110010 pc
#250
b0000000000110011 pc
#437
b0000000000110110 pc
#812
b0000000000111110 pc
#1187
b0000000001000100 pc
#1250
b0000000001000101 pc
#1312
b0000000001000110 pc
#1437
b0000000001001000 pc
#1500
1p0
b0000000001001001 pc
#1562
b0000000001001010 pc
#1687
1p23
b0000000001001100 pc
#1875
b0000000001001110 pc
#2125
#2250
b0000000001001101 pc
#2375
b0000000001001110 pc
#2500
b0000000001001101 pc
#2625
b0000000001001110 pc
#2750
b0000000001001101 pc
#2875
b0000000001001110 pc
#3000
b0000000001001101 pc
#3125
b0000000001001110 pc
#3375
#3500
b0000000001001101 pc
#3625
b0000000001001110 pc
#3750
b0000000001001101 pc
#3875
b0000000001001110 pc
#4000
b0000000001001101 pc
#4125
b0000000001001110 pc
#4250
b0000000001001101 pc
#4375
b0000000001001110 pc
#4500
b0000000001001101 pc
#4625
b0000000001001110 pc
#4750
b0000000001001101 pc
#4875
b0000000001001110 pc
#5000
b0000000001001101 pc
#5125
b0000000001001110 pc
#5250
b0000000001001101 pc
#5375
b0000000001001110 pc
#5500
b0000000001001101 pc
#5625
b0000000001001110 pc
#5750
b0000000001001101 pc
#5875
b0000000001001110 pc
#6000
b0000000001001101 pc
#6125
b0000000001001110 pc
#6250
b0000000001001101 pc
#6375
b0000000001001110 pc
#6500
b0000000001001101 pc
#6625
b0000000001001110 pc
#6750
b0000000001001101 pc
#6875
b0000000001001110 pc
#7000
b0000000001001101 pc
#7125
b0000000001001110 pc
#7250
b0000000001001101 pc
#7375
b0000000001001110 pc
#7500
b0000000001001101 pc
#7625
b0000000001001110 pc
#7750
b0000000001001101 pc
#7875
b0000000001001110 pc
#8000
b0000000001001101 pc
#8125
b0000000001001110 pc
#8250
b0000000001001101 pc
#8375
b0000000001001110 pc
#8500
b0000000001001101 pc
#8625
b0000000001001110 pc
#8750
b0000000001001101 pc
#8875
b0000000001001110 pc
#9000
b0000000001001101 pc
#9125
b0000000001001110 pc
#9250
b0000000001001101 pc
#9375
b0000000001001110 pc
#9500
b0000000001001101 pc
#9625
b0000000001001110 pc
#9750
b0000000001001101 pc
#9875
b0000000001001110 pc
#10000
b0000000001001101 pc
#10125
b0000000001001110 pc
#10250
b0000000001001101 pc
#10375
b0000000001001110 pc
#10500
b0000000001001101 pc
#10625
b0000000001001110 pc
#10750
b0000000001001101 pc
#10875
b0000000001001110 pc
#11000
b0000000001001101 pc
#11125
b0000000001001110 pc
#11250
b0000000001001101 pc
#11375
b0000000001001110 pc
#11500
b0000000001001101 pc
#11625
b0000000001001110 pc
#11750
b0000000001001101 pc
#11875
b0000000001001110 pc
#12000
b0000000001001101 pc
#12125
b0000000001001110 pc
#12250
b0000000001001101 pc
#12375
b0000000001001110 pc
#12500
b0000000001001101 pc
#12625
b0000000001001110 pc
#12750
b0000000001001101 pc
#12875
b0000000001001110 pc
#13000
b0000000001001101 pc
#13125
b0000000001001110 pc
#13250
b0000000001001101 pc
#13375
b0000000001001110 pc
#13500
b0000000001001101 pc
#13625
b0000000001001110 pc
#13750
b0000000001001101 pc
#13875
b0000000001001110 pc
#14000
b0000000001001101 pc
#14125
b0000000001001110 pc
#14250
b0000000001001101 pc
#14375
b0000000001001110 pc
#14500
b0000000001001101 pc
#14625
b0000000001001110 pc
#14750
b0000000001001101 pc
#14875
b0000000001001110 pc
#15000
b0000000001001101 pc
#15125
b0000000001001110 pc
#15250
b0000000001001101 pc
#15375
b0000000001001110 pc
#15500
b0000000001001101 pc
#15625
b0000000001001110 pc
#15750
b0000000001001101 pc
#15875
b0000000001001110 pc
#16000
b0000000001001101 pc
#16125
b0000000001001110 pc
#16250
b0000000001001101 pc
#16375
b0000000001001110 pc
#16500
b0000000001001101 pc
#16625
b0000000001001110 pc
#16750
b0000000001001101 pc
#16875
b0000000001001110 pc
#17000
b0000000001001101 pc
#17125
b0000000001001110 pc
#17250
b0000000001001101 pc
#17375
b0000000001001110 pc
#17500
b0000000001001101 pc
#17625
b0000000001001110 pc
#17750
b0000000001001101 pc
#17875
b0000000001001110 pc
#18000
b0000000001001101 pc
#18125
b0000000001001110 pc
#18250
b0000000001001101 pc
#18375
b0000000001001110 pc
#18500
b0000000001001101 pc
#18625
b0000000001001110 pc
#18750
b0000000001001101 pc
#18875
b0000000001001110 pc
#19000
b0000000001001101 pc
#19125
b0000000001001110 pc
#19250
b0000000001001101 pc
#19375
b0000000001001110 pc
#19500
b0000000001001101 pc
#19625
b0000000001001110 pc
#19750
b0000000001001101 pc
#19875
b0000000001001110 pc
#20000
b0000000001001101 pc
#20125
b0000000001001110 pc
#20250
b0000000001001101 pc
#20375
b0000000001001110 pc
#20500
b0000000001001101 pc
#20625
b0000000001001110 pc
#20750
b0000000001001101 pc
#20875
b0000000001001110 pc
#21000
b0000000001001101 pc
#21125
b0000000001001110 pc
#21250
b0000000001001101 pc
#21375
b0000000001001110 pc
#21500
b0000000001001101 pc
#21625
b0000000001001110 pc
#21750
b0000000001001101 pc
#21875
b0000000001001110 pc
#22000
b0000000001001101 pc
#22125
b0000000001001110 pc
#22250
b0000000001001101 pc
#22375
b0000000001001110 pc
#22500
b0000000001001101 pc
#22625
b0000000001001110 pc
#22750
b0000000001001101 pc
#22875
b0000000001001110 pc
#23000
b0000000001001101 pc
#23125
b0000000001001110 pc
#23250
b0000000001001101 pc
#23375
b0000000001001110 pc
#23500
b0000000001001101 pc
#23625
b0000000001001110 pc
#23750
b0000000001001101 pc
#23875
b0000000001001110 pc
#24000
b0000000001001101 pc
#24125
b0000000001001110 pc
#24250
b0000000001001101 pc
#24375
b0000000001001110 pc
#24500
b0000000001001101 pc
#24625
b0000000001001110 pc
#24750
b0000000001001101 pc
#24875
b0000000001001110 pc
#25000
b0000000001001101 pc
#25125
b0000000001001110 pc
#25250
b0000000001001101 pc
#25375
b0000000001001110 pc
#25500
b0000000001001101 pc
#25625
b0000000001001110 pc
#25750
b0000000001001101 pc
#25875
b0000000001001110 pc
#26000
b0000000001001101 pc
#26125
b0000000001001110 pc
#26250
b0000000001001101 pc
#26375
b0000000001001110 pc
#26500
b0000000001001101 pc
#26625
b0000000001001110 pc
#26750
b0000000001001101 pc
#26875
b0000000001001110 pc
#27000
b0000000001001101 pc
#27125
b0000000001001110 pc
#27250
b0000000001001101 pc
#27375
b0000000001001110 pc
#27500
b0000000001001101 pc
#27625
b0000000001001110 pc
#27750
b0000000001001101 pc
#27875
b0000000001001110 pc
#28000
b0000000001001101 pc
#28125
b0000000001001110 pc
#28250
b0000000001001101 pc
#28375
b0000000001001110 pc
#28500
b0000000001001101 pc
#28625
b0000000001001110 pc
#28750
b0000000001001101 pc
#28875
b0000000001001110 pc
#29000
b0000000001001101 pc
#29125
b0000000001001110 pc
#29250
b0000000001001101 pc
#29375
b0000000001001110 pc
#29500
b0000000001001101 pc
#29625
b0000000001001110 pc
#29750
b0000000001001101 pc
#29875
b0000000001001110 pc
#30000
b0000000001001101 pc
#30125
b0000000001001110 pc
#30250
b0000000001001101 pc
#30375
b0000000001001110 pc
#30500
b0000000001001101 pc
#30625
b0000000001001110 pc
#30750
b0000000001001101 pc
#30875
b0000000001001110 pc
#31000
b0000000001001101 pc
#31125
b0000000001001110 pc
#31250
b0000000001001101 pc
#31375
b0000000001001110 pc
#31500
b0000000001001101 pc
#31625
b0000000001001110 pc
#31750
b0000000001001101 pc
#31875
b0000000001001110 pc
#32000
b0000000001001101 pc
#32125
b0000000001001110 pc
#32250
b0000000001001101 pc
#32375
b0000000001001110 pc
#32500
b0000000001001101 pc
#32625
b0000000001001110 pc
#32750
b0000000001001101 pc
#32875
b0000000001001110 pc
#33000
b0000000001001101 pc
#33125
b0000000001001110 pc
#33250
b0000000001001101 pc
#33375
b0000000001001110 pc
#33500
b0000000001001101 pc
#33625
b0000000001001110 pc
#33750
b0000000001001101 pc
#33875
b0000000001001110 pc
#34000
b0000000001001101 pc
#34125
b0000000001001110 pc
#34250
b0000000001001101 pc
#34375
b0000000001001110 pc
#34500
b0000000001001101 pc
#34625
b0000000001001110 pc
#34750
b0000000001001101 pc
#34875
b0000000001001110 pc
#35000
b0000000001001101 pc
#35125
b0000000001001110 pc
#35250
b0000000001001101 pc
#35375
b0000000001001110 pc
#35500
b0000000001001101 pc
#35625
b0000000001001110 pc
#35750
b0000000001001101 pc
#35875
b0000000001001110 pc
#36000
b0000000001001101 pc
#36125
b0000000001001110 pc
#36250
b0000000001001101 pc
#36375
b0000000001001110 pc
#36500
b0000000001001101 pc
#36625
b0000000001001110 pc
#36750
b0000000001001101 pc
#36875
b0000000001001110 pc
#37000
b0000000001001101 pc
#37125
b0000000001001110 pc
#37250
b0000000001001101 pc
#37375
b0000000001001110 pc
#37500
b0000000001001101 pc
#37625
b0000000001001110 pc
#37750
b0000000001001101 pc
#37875
b0000000001001110 pc
#38000
b0000000001001101 pc
#38125
b0000000001001110 pc
#38250
b0000000001001101 pc
#38375
b0000000001001110 pc
#38500
b0000000001001101 pc
#38625
b0000000001001110 pc
#38750
b0000000001001101 pc
#38875
b0000000001001110 pc
#39000
b0000000001001101 pc
#39125
b0000000001001110 pc
#39250
b0000000001001101 pc
#39375
b0000000001001110 pc
#39500
b0000000001001101 pc
#39625
b0000000001001110 pc
#39750
b0000000001001101 pc
#39875
b0000000001001110 pc
#40000
b0000000001001101 pc
#40125
b0000000001001110 pc
#40250
b0000000001001101 pc
#40375
b0000000001001110 pc
#40500
b0000000001001101 pc
#40625
b0000000001001110 pc
#40750
b0000000001001101 pc
#40875
b0000000001001110 pc
#41000
b0000000001001101 pc
#41125
b0000000001001110 pc
#41250
b0000000001001101 pc
#41375
b0000000001001110 pc
#41500
b0000000001001101 pc
#41625
b0000000001001110 pc
#41750
b0000000001001101 pc
#41875
b0000000001001110 pc
#42000
b0000000001001101 pc
#42125
b0000000001001110 pc
#42250
b0000000001001101 pc
#42375
b0000000001001110 pc
#42500
b0000000001001101 pc
#42625
b0000000001001110 pc
#42750
b0000000001001101 pc
#42875
b0000000001001110 pc
#43000
b0000000001001101 pc
#43125
b0000000001001110 pc
#43250
b0000000001001101 pc
#43375
b0000000001001110 pc
#43500
b0000000001001101 pc
#43625
b0000000001001110 pc
#43750
b0000000001001101 pc
#43875
b0000000001001110 pc
#44000
b0000000001001101 pc
#44125
b0000000001001110 pc
#44250
b0000000001001101 pc
#44375
b0000000001001110 pc
#44500
b0000000001001101 pc
#44625
b0000000001001110 pc
#44750
b0000000001001101 pc
#44875
b0000000001001110 pc
#45000
b0000000001001101 pc
#45125
b0000000001001110 pc
#45250
b0000000001001101 pc
#45375
b0000000001001110 pc
#45500
b0000000001001101 pc
#45625
b0000000001001110 pc
#45750
b0000000001001101 pc
#45875
b0000000001001110 pc
#46000
b0000000001001101 pc
#46125
b0000000001001110 pc
#46250
b0000000001001101 pc
#46375
b0000000001001110 pc
#46500
b0000000001001101 pc
#46625
b0000000001001110 pc
#46750
b0000000001001101 pc
#46875
b0000000001001110 pc
#47000
b0000000001001101 pc
#47125
b0000000001001110 pc
#47250
b0000000001001101 pc
#47375
b0000000001001110 pc
#47500
b0000000001001101 pc
#47625
b0000000001001110 pc
#47750
b0000000001001101 pc
#47875
b0000000001001110 pc
#48000
b0000000001001101 pc
#48125
b0000000001001110 pc
#48250
b0000000001001101 pc
#48375
b0000000001001110 pc
#48500
b0000000001001101 pc
#48625
b0000000001001110 pc
#48750
b0000000001001101 pc
#48875
b0000000001001110 pc
#49000
b0000000001001101 pc
#49125
b0000000001001110 pc
#49250
b0000000001001101 pc
#49375
b0000000001001110 pc
#49500
b0000000001001101 pc
#49625
b0000000001001110 pc
#49750
b0000000001001101 pc
#49875
b0000000001001110 pc
#50000
b0000000001001101 pc
#50125
b0000000001001110 pc
#50250
b0000000001001101 pc
#50375
b0000000001001110 pc
#50500
b0000000001001101 pc
#50625
b0000000001001110 pc
#50750
b0000000001001101 pc
#50875
b0000000001001110 pc
#51000
b0000000001001101 pc
#51125
b0000000001001110 pc
#51250
b0000000001001101 pc
#51375
b0000000001001110 pc
#51500
b0000000001001101 pc
#51625
b0000000001001110 pc
#51750
b0000000001001101 pc
#51875
b0000000001001110 pc
#52000
b0000000001001101 pc
#52125
b0000000001001110 pc
#52250
b0000000001001101 pc
#52375
b0000000001001110 pc
#52500
b0000000001001101 pc
#52625
b0000000001001110 pc
#52750
b0000000001001101 pc
#52875
b0000000001001110 pc
#53000
b0000000001001101 pc
#53125
b0000000001001110 pc
#53250
b0000000001001101 pc
#53375
b0000000001001110 pc
#53500
b0000000001001101 pc
#53625
b0000000001001110 pc
#53750
b0000000001001101 pc
#53875
b0000000001001110 pc
#54000
b0000000001001101 pc
#54125
b0000000001001110 pc
#54250
b0000000001001101 pc
#54375
b0000000001001110 pc
#54500
b0000000001001101 pc
#54625
b0000000001001110 pc
#54750
b0000000001001101 pc
#54875
b0000000001001110 pc
#55000
b0000000001001101 pc
#55125
b0000000001001110 pc
#55250
b0000000001001101 pc
#55375
b0000000001001110 pc
#55500
b0000000001001101 pc
#55625
b0000000001001110 pc
#55750
b0000000001001101 pc
#55875
b0000000001001110 pc
#56000
b0000000001001101 pc
#56125
b0000000001001110 pc
#56250
b0000000001001101 pc
#56375
b0000000001001110 pc
#56500
b0000000001001101 pc
#56625
b0000000001001110 pc
#56750
b0000000001001101 pc
#56875
b0000000001001110 pc
#57000
b0000000001001101 pc
#57125
b0000000001001110 pc
#57250
b0000000001001101 pc
#57375
b0000000001001110 pc
#57500
b0000000001001101 pc
#57625
b0000000001001110 pc
#57750
b0000000001001101 pc
#57875
b0000000001001110 pc
#58000
b0000000001001101 pc
#58125
b0000000001001110 pc
#58250
b0000000001001101 pc
#58375
b0000000001001110 pc
#58500
b0000000001001101 pc
#58625
b0000000001001110 pc
#58750
b0000000001001101 pc
#58875
b0000000001001110 pc
#59000
b0000000001001101 pc
#59125
b0000000001001110 pc
#59250
b0000000001001101 pc
#59375
b0000000001001110 pc
#59500
b0000000001001101 pc
#59625
b0000000001001110 pc
#59750
b0000000001001101 pc
#59875
b0000000001001110 pc
#60000
b0000000001001101 pc
#60125
b0000000001001110 pc
#60250
b0000000001001101 pc
#60375
b0000000001001110 pc
#60500
b0000000001001101 pc
#60625
b0000000001001110 pc
#60750
b0000000001001101 pc
#60875
b0000000001001110 pc
#61000
b0000000001001101 pc
#61125
b0000000001001110 pc
#61250
b0000000001001101 pc
#61375
b0000000001001110 pc
#61500
b0000000001001101 pc
#61625
b0000000001001110 pc
#61750
b0000000001001101 pc
#61875
b0000000001001110 pc
#62000
b0000000001001101 pc
#62125
b0000000001001110 pc
#62250
b0000000001001101 pc
#62375
b0000000001001110 pc
#62500
b0000000001001101 pc
#62625
b0000000001001110 pc
#62750
b0000000001001101 pc
#62875
b0000000001001110 pc
#63000
b0000000001001101 pc
#63125
b0000000001001110 pc
#63250
b0000000001001101 pc
#63375
b0000000001001110 pc
#63500
b0000000001001101 pc
#63625
b0000000001001110 pc
#63750
b0000000001001101 pc
#63875
b0000000001001110 pc
#64000
b0000000001001101 pc
#64125
b0000000001001110 pc
#64250
b0000000001001101 pc
#64375
b0000000001001110 pc
#64500
b0000000001001101 pc
#64625
b0000000001001110 pc
#64750
b0000000001001101 pc
#64875
b0000000001001110 pc
#65000
b0000000001001101 pc
#65125
b0000000001001110 pc
#65250
b0000000001001101 pc
#65375
b0000000001001110 pc
#65500
b0000000001001101 pc
#65625
b0000000001001110 pc
#65750
b0000000001001101 pc
#65875
b0000000001001110 pc
#66000
b0000000001001101 pc
#66125
b0000000001001110 pc
#66250
b0000000001001101 pc
#66375
b0000000001001110 pc
#66500
b0000000001001101 pc
#66625
b0000000001001110 pc
#66750
b0000000001001101 pc
#66875
b0000000001001110 pc
#67000
b0000000001001101 pc
#67125
b0000000001001110 pc
#67250
b0000000001001101 pc
#67375
b0000000001001110 pc
#67500
b0000000001001101 pc
#67625
b0000000001001110 pc
#67750
b0000000001001101 pc
#67875
b0000000001001110 pc
#68000
b0000000001001101 pc
#68125
b0000000001001110 pc
#68250
b0000000001001101 pc
#68375
b0000000001001110 pc
#68500
b0000000001001101 pc
#68625
b0000000001001110 pc
#68750
b0000000001001101 pc
#68875
b0000000001001110 pc
#69000
b0000000001001101 pc
#69125
b0000000001001110 pc
#69250
b0000000001001101 pc
#69375
b0000000001001110 pc
#69500
b0000000001001101 pc
#69625
b0000000001001110 pc
#69750
b0000000001001101 pc
#69875
b0000000001001110 pc
#70000
b0000000001001101 pc
#70125
b0000000001001110 pc
#70250
b0000000001001101 pc
#70375
b0000000001001110 pc
#70500
b0000000001001101 pc
#70625
b0000000001001110 pc
#70750
b0000000001001101 pc
#70875
b0000000001001110 pc
#71000
b0000000001001101 pc
#71125
b0000000001001110 pc
#71250
b0000000001001101 pc
#71375
b0000000001001110 pc
#71500
b0000000001001101 pc
#71625
b0000000001001110 pc
#71750
b0000000001001101 pc
#71875
b0000000001001110 pc
#72000
b0000000001001101 pc
#72125
b0000000001001110 pc
#72250
b0000000001001101 pc
#72375
b0000000001001110 pc
#72500
b0000000001001101 pc
#72625
b0000000001001110 pc
#72750
b0000000001001101 pc
#72875
b0000000001001110 pc
#73000
b0000000001001101 pc
#73125
b0000000001001110 pc
#73250
b0000000001001101 pc
#73375
b0000000001001110 pc
#73500
b0000000001001101 pc
#73625
b0000000001001110 pc
#73750
b0000000001001101 pc
#73875
b0000000001001110 pc
#74000
b0000000001001101 pc
#74125
b0000000001001110 pc
#74250
b0000000001001101 pc
#74375
b0000000001001110 pc
#74500
b0000000001001101 pc
#74625
b0000000001001110 pc
#74750
b0000000001001101 pc
#74875
b0000000001001110 pc
#75000
b0000000001001101 pc
#75125
b0000000001001110 pc
#75250
b0000000001001101 pc
#75375
b0000000001001110 pc
#75500
b0000000001001101 pc
#75625
b0000000001001110 pc
#75750
b0000000001001101 pc
#75875
b0000000001001110 pc
#76000
b0000000001001101 pc
#76125
b0000000001001110 pc
#76250
b0000000001001101 pc
#76375
b0000000001001110 pc
#76500
b0000000001001101 pc
#76625
b0000000001001110 pc
#76750
b0000000001001101 pc
#76875
b0000000001001110 pc
#77000
b0000000001001101 pc
#77125
b0000000001001110 pc
#77250
b0000000001001101 pc
#77375
b0000000001001110 pc
#77500
b0000000001001101 pc
#77625
b0000000001001110 pc
#77750
b0000000001001101 pc
#77875
b0000000001001110 pc
#78000
b0000000001001101 pc
#78125
b0000000001001110 pc
#78250
b0000000001001101 pc
#78375
b0000000001001110 pc
#78500
b0000000001001101 pc
#78625
b0000000001001110 pc
#78750
b0000000001001101 pc
#78875
b0000000001001110 pc
#79000
b0000000001001101 pc
#79125
b0000000001001110 pc
#79250
b0000000001001101 pc
#79375
b0000000001001110 pc
#79500
b0000000001001101 pc
#79625
b0000000001001110 pc
#79750
b0000000001001101 pc
#79875
b0000000001001110 pc
#80000
b0000000001001101 pc
#80125
b0000000001001110 pc
#80250
b0000000001001101 pc
#80375
b0000000001001110 pc
#80500
b0000000001001101 pc
#80625
b0000000001001110 pc
#80750
b0000000001001101 pc
#80875
b0000000001001110 pc
#81000
b0000000001001101 pc
#81125
b0000000001001110 pc
#81250
b0000000001001101 pc
#81375
b0000000001001110 pc
#81500
b0000000001001101 pc
#81625
b0000000001001110 pc
#81750
b0000000001001101 pc
#81875
b0000000001001110 pc
#82000
b0000000001001101 pc
#82125
b0000000001001110 pc
#82250
b0000000001001101 pc
#82375
b0000000001001110 pc
#82500
b0000000001001101 pc
#82625
b0000000001001110 pc
#82750
b0000000001001101 pc
#82875
b0000000001001110 pc
#83000
b0000000001001101 pc
#83125
b0000000001001110 pc
#83250
b0000000001001101 pc
#83375
b0000000001001110 pc
#83500
b0000000001001101 pc
#83625
b0000000001001110 pc
#83750
b0000000001001101 pc
#83875
b0000000001001110 pc
#84000
b0000000001001101 pc
#84125
b0000000001001110 pc
#84250
b0000000001001101 pc
#84375
b0000000001001110 pc
#84500
b0000000001001101 pc
#84625
b0000000001001110 pc
#84750
b0000000001001101 pc
#84875
b0000000001001110 pc
#85000
b0000000001001101 pc
#85125
b0000000001001110 pc
#85250
b0000000001001101 pc
#85375
b0000000001001110 pc
#85500
b0000000001001101 pc
#85625
b0000000001001110 pc
#85750
b0000000001001101 pc
#85875
b0000000001001110 pc
#86000
b0000000001001101 pc
#86125
b0000000001001110 pc
#86250
b0000000001001101 pc
#86375
b0000000001001110 pc
#86500
b0000000001001101 pc
#86625
b0000000001001110 pc
#86750
b0000000001001101 pc
#86875
b0000000001001110 pc
#87000
b0000000001001101 pc
#87125
b0000000001001110 pc
#87250
b0000000001001101 pc
#87375
b0000000001001110 pc
#87500
b0000000001001101 pc
#87625
b0000000001001110 pc
#87750
b0000000001001101 pc
#87875
b0000000001001110 pc
#88000
b0000000001001101 pc
#88125
b0000000001001110 pc
#88250
b0000000001001101 pc
#88375
b0000000001001110 pc
#88500
b0000000001001101 pc
#88625
b0000000001001110 pc
#88750
b0000000001001101 pc
#88875
b0000000001001110 pc
#89000
b0000000001001101 pc
#89125
b0000000001001110 pc
#89250
b0000000001001101 pc
#89375
b0000000001001110 pc
#89500
b0000000001001101 pc
#89625
b0000000001001110 pc
#89750
b0000000001001101 pc
#89875
b0000000001001110 pc
#90000
b0000000001001101 pc
#90125
b0000000001001110 pc
#90250
b0000000001001101 pc
#90375
b0000000001001110 pc
#90500
b0000000001001101 pc
#90625
b0000000001001110 pc
#90750
b0000000001001101 pc
#90875
b0000000001001110 pc
#91000
b0000000001001101 pc
#91125
b0000000001001110 pc
#91250
b0000000001001101 pc
#91375
b0000000001001110 pc
#91500
b0000000001001101 pc
#91625
b0000000001001110 pc
#91750
b0000000001001101 pc
#91875
b0000000001001110 pc
#92000
b0000000001001101 pc
#92125
b0000000001001110 pc
#92250
b0000000001001101 pc
#92375
b0000000001001110 pc
#92500
b0000000001001101 pc
#92625
b0000000001001110 pc
#92750
b0000000001001101 pc
#92875
b0000000001001110 pc
#93000
b0000000001001101 pc
#93125
b0000000001001110 pc
#93250
b0000000001001101 pc
#93375
b0000000001001110 pc
#93500
b0000000001001101 pc
#93625
b0000000001001110 pc
#93750
b0000000001001101 pc
#93875
b0000000001001110 pc
#94000
b0000000001001101 pc
#94125
b0000000001001110 pc
#94250
b0000000001001101 pc
#94375
b0000000001001110 pc
#94500
b0000000001001101 pc
#94625
b0000000001001110 pc
#94750
b0000000001001101 pc
#94875
b0000000001001110 pc
#95000
b0000000001001101 pc
#95125
b0000000001001110 pc
#95250
b0000000001001101 pc
#95375
b0000000001001110 pc
#95500
b0000000001001101 pc
#95625
b0000000001001110 pc
#95750
b0000000001001101 pc
#95875
b0000000001001110 pc
#96000
b0000000001001101 pc
#96125
b0000000001001110 pc
#96250
b0000000001001101 pc
#96375
b0000000001001110 pc
#96500
b0000000001001101 pc
#96625
b0000000001001110 pc
#96750
b0000000001001101 pc
#96875
b0000000001001110 pc
#97000
b0000000001001101 pc
#97125
b0000000001001110 pc
#97250
b0000000001001101 pc
#97375
b0000000001001110 pc
#97500
b0000000001001101 pc
#97625
b0000000001001110 pc
#97750
b0000000001001101 pc
#97875
b0000000001001110 pc
#98000
b0000000001001101 pc
#98125
b0000000001001110 pc
#98250
b0000000001001101 pc
#98375
b0000000001001110 pc
#98500
b0000000001001101 pc
#98625
b0000000001001110 pc
#98750
b0000000001001101 pc
#98875
b0000000001001110 pc
#99000
b0000000001001101 pc
#99125
b0000000001001110 pc
#99250
b0000000001001101 pc
#99375
b0000000001001110 pc
#99500
b0000000001001101 pc
#99625
b0000000001001110 pc
#99750
b0000000001001101 pc
#99875
b0000000001001110 pc
#100000
b0000000001001101 pc
#100125
b0000000001001110 pc
#100250
b0000000001001101 pc
#100375
b0000000001001110 pc
#100500
b0000000001001101 pc
#100625
b0000000001001110 pc
#100750
b0000000001001101 pc
#100875
b0000000001001110 pc
#101000
b0000000001001101 pc
#101125
b0000000001001110 pc
#101250
b0000000001001101 pc
#101375
b0000000001001110 pc
#101500
b0000000001001101 pc
#101625
b0000000001001110 pc
#101750
b0000000001001101 pc
#101875
b0000000001001110 pc
#102000
b0000000001001101 pc
#102125
b0000000001001110 pc
#102250
b0000000001001101 pc
#102375
b0000000001001110 pc
#102500
b0000000001001101 pc
#102625
b0000000001001110 pc
#102750
b0000000001001101 pc
#102875
b0000000001001110 pc
#103000
b0000000001001101 pc
#103125
b0000000001001110 pc
#103250
b0000000001001101 pc
#103375
b0000000001001110 pc
#103500
b0000000001001101 pc
#103625
b0000000001001110 pc
#103750
b0000000001001101 pc
#103875
b0000000001001110 pc
#104000
b0000000001001101 pc
#104125
b0000000001001110 pc
#104250
b0000000001001101 pc
#104375
b0000000001001110 pc
#104500
b0000000001001101 pc
#104625
b0000000001001110 pc
#104750
b0000000001001101 pc
#104875
b0000000001001110 pc
#105000
b0000000001001101 pc
#105125
b0000000001001110 pc
#105250
b0000000001001101 pc
#105375
b0000000001001110 pc
#105500
b0000000001001101 pc
#105625
b0000000001001110 pc
#105750
b0000000001001101 pc
#105875
b0000000001001110 pc
#106000
b0000000001001101 pc
#106125
b0000000001001110 pc
#106250
b0000000001001101 pc
#106375
b0000000001001110 pc
#106500
b0000000001001101 pc
#106625
b0000000001001110 pc
#106750
b0000000001001101 pc
#106875
b0000000001001110 pc
#107000
b0000000001001101 pc
#107125
b0000000001001110 pc
#107250
b0000000001001101 pc
#107375
b0000000001001110 pc
#107500
b0000000001001101 pc
#107625
b0000000001001110 pc
#107750
b0000000001001101 pc
#107875
b0000000001001110 pc
#108000
b0000000001001101 pc
#108125
b0000000001001110 pc
#108250
b0000000001001101 pc
#108375
b0000000001001110 pc
#108500
b0000000001001101 pc
#108625
b0000000001001110 pc
#108750
b0000000001001101 pc
#108875
b0000000001001110 pc
#109000
b0000000001001101 pc
#109125
b0000000001001110 pc
#109250
b0000000001001101 pc
#109375
b0000000001001110 pc
#109500
b0000000001001101 pc
#109625
b0000000001001110 pc
#109750
b0000000001001101 pc
#109875
b0000000001001110 pc
#110000
b0000000001001101 pc
#110125
b0000000001001110 pc
#110250
b0000000001001101 pc
#110375
b0000000001001110 pc
#110500
b0000000001001101 pc
#110625
b0000000001001110 pc
#110750
b0000000001001101 pc
#110875
b0000000001001110 pc
#111000
b0000000001001101 pc
#111125
b0000000001001110 pc
#111250
b0000000001001101 pc
#111375
b0000000001001110 pc
#111500
b0000000001001101 pc
#111625
b0000000001001110 pc
#111750
b0000000001001101 pc
#111875
b0000000001001110 pc
#112000
b0000000001001101 pc
#112125
b0000000001001110 pc
#112250
b0000000001001101 pc
#112375
b0000000001001110 pc
#112500
b0000000001001101 pc
#112625
b0000000001001110 pc
#112750
b0000000001001101 pc
#112875
b0000000001001110 pc
#113000
b0000000001001101 pc
#113125
b0000000001001110 pc
#113250
b0000000001001101 pc
#113375
b0000000001001110 pc
#113500
b0000000001001101 pc
#113625
b0000000001001110 pc
#113750
b0000000001001101 pc
#113875
b0000000001001110 pc
#114000
b0000000001001101 pc
#114125
b0000000001001110 pc
#114250
b0000000001001101 pc
#114375
b0000000001001110 pc
#114500
b0000000001001101 pc
#114625
b0000000001001110 pc
#114750
b0000000001001101 pc
#114875
b0000000001001110 pc
#115000
b0000000001001101 pc
#115125
b0000000001001110 pc
#115250
b0000000001001101 pc
#115375
b0000000001001110 pc
#115500
b0000000001001101 pc
#115625
b0000000001001110 pc
#115750
b0000000001001101 pc
#115875
b0000000001001110 pc
#116000
b0000000001001101 pc
#116125
b0000000001001110 pc
#116250
b0000000001001101 pc
#116375
b0000000001001110 pc
#116500
b0000000001001101 pc
#116625
b0000000001001110 pc
#116750
b0000000001001101 pc
#116875
b0000000001001110 pc
#117000
b0000000001001101 pc
#117125
b0000000001001110 pc
#117250
b0000000001001101 pc
#117375
b0000000001001110 pc
#117500
b0000000001001101 pc
#117625
b0000000001001110 pc
#117750
b0000000001001101 pc
#117875
b0000000001001110 pc
#118000
b0000000001001101 pc
#118125
b0000000001001110 pc
#118250
b0000000001001101 pc
#118375
b0000000001001110 pc
#118500
b0000000001001101 pc
#118625
b0000000001001110 pc
#118750
b0000000001001101 pc
#118875
b0000000001001110 pc
